:020000020000FC
:20000000008100141001483A10BFF80400BFFD1600400034084008140800683A0000000099
:2000080006C00034DED5FE1406800034D6B32314008000341093231400C0003418D32D14F1
:2000100010C00326100000151080010410FFFD3600047D40003FFF0621003FCC00800244E4
:20001800110030362105883A1085883A00C0003418C0210410C5883A1080001729403FCC6F
:200020001000683A000000AC000000B8000000C4000000D0000000DC000000E8000000F45E
:20002800000001000000010C00000118010000342112F88400000206010000342112F984C0
:200030000001F3C1010000342112FC84003FFC06010000342112FD84003FF9060100003476
:200038002112FE84003FF606010000342112FF84003FF306010000342112FA84003FF0067A
:20004000010000342112FB84003FED060100003421130084003FEA0601000034211301847D
:20004800003FE706F800283ADEFFFF0421003FCC00800244DFC00015110011362105883A4C
:200050001085883A00C0003418C0560410C5883A108000171000683A000001880000019801
:20005800000001A8000001B8000001C8000001D8000001E8000001F8000001880000019880
:200060000005883A00002006010000C4014000342952F28400001B06010000C4014000340D
:200068002952F38400001706010000C4014000342952E48400001306010000C401400034F9
:200070002952F48400000F06010000C4014000342952F58400000B06010000C401400034EF
:200078002952F68400000706010000C4014000342952F78400000306010000C401400034F3
:200080002952D6840001CF4010803FCCDFC00017DEC00104F800283ADEFFED04018003C417
:20008800D90003040140003429520B04DFC01215DF001115DDC01015DD800F15DD400E152B
:20009000DD000D15DCC00C15DC800B15DC400A15DC00091500047880010000342112E1841A
:20009800014000440001F3C0010000342112E684000B883A0001F3C0010000342112EC84E4
:2000A0000001CB8010803FCC1000CE2601800284D809883A000B883A00047B40000B883A52
:2000A800010000342112EC840001F3C0010000342112E2840001CB80010000342112E384C3
:2000B000D88007850001CB80010000342112EB84D88007450001CB80000B883A0100003437
:2000B8002112E284D88007050001F3C0010000342112E384000B883A0001F3C001000034F2
:2000C0002112EB84000B883A0001F3C0010000342112E084014000440001F3C001000034C3
:2000C8002112D184014000440001F3C0010000342112DB84014000440001F3C00100003422
:2000D0002112EF84000B883A0001F3C0010000342112F084014000440001F3C0010000349F
:2000D8002112F184014000440001F3C0010000342112EA84014000440001F3C00021883A35
:2000E0008009883A000B883A00000580DC05883A10000005840000440080028480BFF81E88
:2000E800D88006830021883A10800044D880080580C03FCC008001C4010000342112DC84A3
:2000F0000140014410C0033601400204010000342112DC840001F3C0010001440001B4C0E3
:2000F8008009883A00001280D8C0080310803FCC1080006010C5883A11403FCC8009883A9F
:2001000000000580840000440080028480BFE81ED80007C5002D883A0025883A9009883A72
:20010800000B883A00000580B0C03FCC008001C410C0042E010000342112DC840140014475
:2001100000000306010000342112DC84014002040001F3C0010001440001B4C09009883AED
:2001180000001280102F883A10803FCC1000031E05400084070000440000020605400044C3
:200120000039883A0029883A0027883AA5000044040003C404400384D88003041445883AF7
:20012800114000039009883A8C7FFFC4A94B883A29403FCC000005809009883A000012809E
:2001300010803FCCE0C03FCC10C0091E843FFFC480803FCC103FF01E00800044D88007C59C
:20013800A0C03FCC0080010418804D26003FE7069C05883A14FFFFC4003FF90621000044A4
:2001400020C03FCCD880030410C5883A10C00003D8800803B9403FCC29400060288B883A46
:200148001D47883ADC85883A9009883A10C0000529403FCCB580004400000580B4803FCC6D
:200150000080020490BFB51E0021883ADC05883A114000038009883A840000440000058075
:20015800008002840440004480BFF81ED9400783010000342112E2840001F3C0D94007431C
:20016000010000342112E3840001F3C0D9400703010000342112EB840001F3C0D88007C32C
:200168001440041E010000342112E984000B883A00000306880B883A010000342112E9842C
:200170000001F3C0010000342112E084000B883A0001F3C0010000342112EA84000B883ACB
:200178000001F3C0010000342112D184000B883ADFC01217DF001117DDC01017DD800F1713
:20018000DD400E17DD000D17DCC00C17DC800B17DC400A17DC000917DEC013040001F3C13C
:20018800988000CC1004D07A98C03FCC1808D0BA00C0004410FFB21E003FB006DEFFFB0454
:20019000DCC00315DC800215DC400115DC0000152027883A2823883A3025883A0021883AF5
:20019800DFC0041500000C060080003410932A04140000050080004490C03FCC84000044F8
:2001A0002880031E1809883A1940011E00035F0089003FCC0000A90080C03FCC98803FCC0E
:2001A80089403FCC18BFF01EDFC00417DCC00317DC800217DC400117DC000017DEC00504CB
:2001B000F800283ADEFFFD04DC400115008000B41080450404400044DFC00215DC00001589
:2001B800144000351000003500012D400002C1800100003421125A84000B883A0001F3C0E1
:2001C00000013100008030341400002300009EC010803FCC1000042600C03FC4008000B4A8
:2001C8001080400410C000358009883A014003040004680014003FCC880B883A880D883A74
:2001D0008009883A000063C08009883A880D883A000B883A000063C000012D401000052666
:2001D8008009883A000B883A000D883A000063C0003FFB06DFC00217DC400117DC000017DE
:2001E000DEC00304F800283ADEFFF904DC40011501400034295278842023883A000D883A34
:2001E800DFC00615DD400515DD000415DCC00315DC800215DC0000150001F9008809883AAB
:2001F0000140003429527984018000C40001F9008809883A0140003429526C8401800044CB
:2001F8000001F9008809883A0140003429527584018000440001F9008809883A014000342A
:2002000029527284018000440001F9008809883A0140003429527B84018001440001F900AC
:20020800002B883A0029883AA0803FCCA027883A1000021E0025883A0000010604800FC4D5
:2002100094003FCC800D883A01400034295276848809883A0001F900010100040001B4C02E
:200218000140003429527A848809883A0001EF808007003A1009883A81400FE010803FCC2E
:200220001821883A98C03FCC1005003A1800011E1009883A20803FCC10000B1E1800011EE4
:200228002821883A80803FCC1004C03A98C03FCC1000281E1800022694BFFFC4003FE0065E
:2002300094800044003FDE06A500004400800084ACAB883AA0BFD41E0140003429527884F0
:20023800000D883A8809883A0001F9008809883A0140003429527984000D883A0001F90081
:200240008809883A0140003429526C84000D883A0001F9008809883A014000342952758466
:20024800000D883A0001F9008809883A0140003429527284000D883A0001F900A9403FCCD7
:20025000280AD07A010000440021883A297FF6C400001B060140003429527884000D883AAC
:200258008809883A0001F9008809883A0140003429527984000D883A0001F9008809883ADD
:200260000140003429526C84000D883A0001F9008809883A0140003429527584000D883ACA
:200268000001F9008809883A0140003429527284000D883A0001F90001000044000B883A68
:200270000001B04080803FCCDFC00617DD400517DD000417DCC00317DC800217DC40011726
:20027800DC000017DEC00704F800283ADEFFFE0401000104DFC00115DC0000150001FD40A7
:2002800001400104010000440001B28001000104000078801021883A10803FCC010001040E
:200288000140003429526884000D883A100013260001F900000D883A0140003429527784AE
:20029000010001040001F900010001440001FD4001400144010000440001B2800100014486
:20029800000078801021883A10803FCC01000044000B883A100001260001B04080803FCC7B
:2002A000DFC00117DC000017DEC00204F800283ADEFFFC04DC800215DC000015DFC003159E
:2002A800DC4001152025883A0021883A00C0003418D32A0494403FCC008000848809883AD7
:2002B0001C000205188001150001DD00840000448809883A1000062600016E8010803FCC9E
:2002B80000C0004401003FC410C0011E0001D5C00080008480BFED1E00C000440080003493
:2002C00010932A048809883A10C0011500024A800025883A0080003410932A048809883A89
:2002C80014800205100001150001DD00948000448809883A10000D260000EA801021883A2C
:2002D00000030680000021800002EDC01404B03A10803FCC1080201C10BFE00400C0004415
:2002D80001003FC410C0011E0001D5C00080018490BFE81EDFC00317DC800217DC400117C1
:2002E000DC000017DEC00404F800283ADEFFED04DCC01115DC000E15018007042821883AE5
:2002E8002027883A01400034295215C4D809883ADFC01215DC801015DC400F1500047880FE
:2002F00001800704D989883A0140003429520EC40004788080C03FCC008004440100003438
:2002F8002112C684014000C410C00336010000342112C684014000840001F3C001000034FB
:200300002112C784000B883A0001F3C084403FCC010000342112CB84DC47883ADC8007040C
:2003080098000D1E1C0000038140060C280AD0FA0001F3C0814001CC010000342112CC842A
:200310000001F3C09445883A11400003010000342112CD8400000E061C0000030100003409
:200318002112CE848140040C280AC03A0001F3C0814003CC010000342112CF840001F3C090
:200320009445883A11400003010000342112D084DFC01217DCC01117DC801017DC400F17C1
:20032800DC000E17DEC013040001F3C1DEFFF704DDC00715DD800615DD400515DD00041514
:20033000DCC00315DC800215DC400115DFC00815DC000015282B883A202D883A0025883A9C
:200338000029883A0023883A0027883A002F883A91403FCCA809883A0000B8C0010100042E
:200340000001B4C0000B883A010000342112DB840001F3C0010000342112DB840140004494
:200348000001F3C0010000342112D984000B883A0001F3C0010000342112D9840140004451
:200350000001F3C0010000342112DC84014001440001F3C00021883A010100040001B4C079
:20035800010000342112D6840001CB808400004410803FCC80C03FCC10002E1E00801904D0
:2003600018BFF51E88C03FCC008018C410C00336B0C03FCC008000441880092688C03FCC82
:2003680098803FCC1889883A20FFFFCCB8BFFFCC18800236202F883A9029883A948000440F
:2003700090C03FCC0080070418BFC91EA0803FCC10C0041E88C03FCC98803FCC10C00B3625
:20037800000012061000041E88C03FCC98803FCC18800C2E00000506A17FFFC428803FCC32
:20038000100008260021883A0000020604000044014006C4A809883A29403FCC0000B8C082
:20038800000015060021883A000013060021883A003FF706014000C4010000342112DC8452
:200390000001F3C0010000342112DD840001CB8001400104010000342112DC841023883A81
:200398000001F3C0010000342112DD840001CB801027883A003FC30680803FCCDFC00817B2
:2003A000DDC00717DD800617DD400517DD000417DCC00317DC800217DC400117DC00001785
:2003A800DEC00904F800283ADEFFF604DC8002152025883A010000342112D784DFC009155F
:2003B000DC400115DC000015DF000815DDC00715DD800615DD400515DD000415DCC00315FC
:2003B8000001CB80010000342112D2841021883A0001CB800009883A1023883A84003FCC8D
:2003C00000035F0088803FCC8000DE261000E526010000342112D784000B883A0001F3C0C5
:2003C800000B883A010000342112DE840001F3C0010000342112CE840001CB80010000348F
:2003D0002112CF84102B883A0001CB80010000342112D084102D883A0001CB800100003402
:2003D8002112CB84102F883A0001CB80010000342112CC841029883A0001CB800100003402
:2003E0002112CD841027883A0001CB80010000342112DF841021883A0001CB8001400044A5
:2003E800010000342112D8841039883A0001F3C001400044010000342112D9840001F3C074
:2003F000010100040001B4C001400084010000342112C8840001F3C00100003421125C84FD
:2003F800014000440001F3C00100003421125D84000B883A0001F3C00100003421125E8498
:20040000000B883A0001F3C0010000342112C984014000C40001F3C0010000342112D18430
:20040800014000440001F3C0010000342112DB84000B883A0001F3C0010000342112DB848C
:20041000014000440001F3C0010000342112DA84014000440001F3C0010000342112DF84C9
:20041800000B883A0001F3C0010000342112D3840001CB8010803FCC1000392601000034F9
:200420002112D4840001CB8010803FCC1000071E010000342112D5840001CB8010803FCC6D
:200428001000021E0023883A00001606010000342112CA84014000840001F3C091003FCCB8
:20043000000B883A0000CAC01023883A10803FCC10000C26A1403FCC010000342112CB84E0
:200438000001F3C099403FCC010000342112CC840001F3C081403FCC010000342112CD841B
:200440000001F3C0010000342112CA84014000440001F3C091003FCC014000440000CAC04E
:200448001021883A10803FCC10002326A9403FCC010000342112CE840001F3C0B1403FCC4F
:20045000010000342112CF840001F3C0B9403FCC010000342112D0840001F3C0000016068D
:2004580091003FCC014000440000CAC010803FCC10004626A9403FCC010000342112CE8414
:200460000001F3C0B1403FCC010000342112CF840001F3C0B9403FCC010000342112D0849D
:200468000001F3C0010000342112C884000B883A0001F3C000000606010000342112C884CB
:20047000000B883A0001F3C088803FCC10000226040000440000020680803FCC1020C03A1B
:20047800E1403FCC010000342112DF840001F3C0010000342112D984000B883A0001F3C073
:20048000010000342112D184000B883A0001F3C08140005C010000342112DE840001F3C083
:20048800010000342112C984000B883A0001F3C00100003421125C84000B883A0001F3C055
:200490000100003421125D84000B883A0001F3C00100003421125E84000B883A0001F3C0B7
:20049800014000440100003421125A840001F3C00009883A00035F00000021800080004433
:2004A000000008061004C03A00000606010000342112C884000B883A0001F3C00021883AFC
:2004A800003FCF06DFC00917DF000817DDC00717DD800617DD400517DD000417DCC0031747
:2004B000DC800217DC400117DC000017DEC00A04F800283ADEFFFF04DFC0001500000106EF
:2004B8000001B4C0008000B4108080041080003701003FC41080004C1005003A103FF81E0C
:2004C00000800044DFC00017DEC00104F800283ADEFFFA0401800284010001040140003448
:2004C80029526384DFC00515DD000415DCC00315DC800215DC400115DC0000150001F900BF
:2004D0000100010401400034295263840001EF800480014410803FCC900D883A01000104F6
:2004D8000140003429526384144002980001F9000100010401400034295263840001EF80F8
:2004E00004C000C410803FCC05000304980D883A01400034295263849009883A8821883AC9
:2004E800148001268C0000440001F9009009883A01400034295263840001EF8010803FCC32
:2004F000A00D883A01400034295263849009883A14C00126840000440001F9009009883A33
:2004F80001400034295263840001EF8010803FCC150001268400004480803FCC1004C03AE5
:20050000DFC00517DD000417DCC00317DC800217DC400117DC000017DEC00604F800283AD4
:20050800DEFFF904DC400515DC0004152023883A2821883AD809883A0140003429521CC44B
:2005100001800404DFC006150004788084003FCC0080034480800E2614000336008003042E
:200518008080071E000008060080038480800A26008003C48080021E01400144000007065F
:2005200001400044000005060140008400000306014000C4000001060140010488803FCCF8
:2005280029403FCCDC21883A1000071E010000342112B4840001F3C08140000301000034FE
:200530002112B58400000606010000342112B7840001F3C081400003010000342112B88474
:20053800DFC00617DC400517DC000417DEC007040001F3C1DEFFF404DF000A15DD8008150D
:20054000DD400715DD000615DCC00515DC800415DC400315DFC00B15DDC00915DC0002159E
:20054800D90001052839883A0023883A002D883A0025883A0027883A002B883A0029883A15
:20055000D800008DD8000005E5C03FCCB809883A89403FCC00014200010000342112AF8464
:20055800000B883A0001F3C0010000342112AF84014000440001F3C0010000342112BB8487
:20056000000B883A0001F3C00021883A010100040001B4C0010000342112BD840001CB80A7
:200568008400004410803FCC80C03FCC1000301E0080028418BFF51E00800044D880000556
:2005700090C03FCC008018C410C00336D8C001030080004418800B2690C03FCC98803FCC04
:200578001889883AD880008B20FFFFCC18800436D900008D882D883A902B883A9829883A84
:200580008C40004488C03FCC008003C418BFCE1EB0803FCC10C0041EA8C03FCCA0803FCC23
:2005880010C00C36000004061000031EA8C03FCCA0803FCC18800736D8C000030080004434
:2005900018800426A0803FCC10000226A8803FCC1000021E0080004400001606B809883A60
:20059800B1403FCC000142000005883A0000110601400104010000342112BB840001F3C085
:2005A000010000342112BE840001CB8001400144010000342112BB841025883A0001F3C06D
:2005A800010000342112BE840001CB801027883A003FC30610803FCCDFC00B17DF000A17E0
:2005B000DDC00917DD800817DD400717DD000617DCC00517DC800417DC400317DC00021763
:2005B800DEC00C04F800283ADEFFFA04DC8002152025883A010000342112BC84DFC0051565
:2005C000DC400115DC000015DD000415DCC003150001CB801021883A01000034211295848E
:2005C8000001CB8084003FCC0009883A1023883A00035F008000B72688803FCC1000B326BD
:2005D000010000342112BA84000B883A0001F3C0000B883A010000342112BC840001F3C0BB
:2005D800010000342112B4840001CB80010000342112B7840001CB80010000342112B58487
:2005E0000001CB80010000342112B8840001CB80010000342112B1840001CB8001000034A1
:2005E8002112C1841027883A0001CB8001400044010000342112AF841029883A0001F3C067
:2005F000010000342112B084014000440001F3C0010000342112B684000B883A0001F3C0F3
:2005F800010000342112B984000B883A0001F3C0010000342112B184014000440001F3C0E7
:20060000010000342112B284014000440001F3C0010000342112C284014000440001F3C01C
:20060800010000342112C184000B883A0001F3C0010000342112C384014000440001F3C0BC
:20061000010000342112C484000B883A0001F3C0010000342112C584000B883A0001F3C067
:20061800010000342112BF840001CB8010803FCC1000122694003FCC010000342112B384AA
:20062000000B883A0001F3C08009883A000B883A00014F4001400044010000342112B3846D
:200628001023883A0001F3C08009883A0140004400014F401021883A000019060100003462
:200630002112C0840001CB8010803FCC94003FCC10000A2601400044010000342112B38449
:200638000001F3C08009883A0140004400014F401021883A0023883A00000906000B883ADA
:20064000010000342112B3840001F3C08009883A000B883A00014F401023883A0021883AC7
:20064800010000342112B684014000440001F3C0010000342112B984014000440001F3C0D9
:2006500099403FCC010000342112B1840001F3C0010000342112B284000B883A0001F3C036
:20065800010000342112AF84000B883A0001F3C0010000342112C284000B883A0001F3C037
:20066000A1403FCC010000342112C1840001F3C0010000342112C384000B883A0001F3C0FD
:20066800010000342112C484000B883A0001F3C0010000342112C584000B883A0001F3C00F
:200670008C04B03A10803FCC1000041E010000342112BA84000B883A000003060100003472
:200678002112BA84014000440001F3C00100003421125B84014000440001F3C00009883A6D
:2006800000035F0000800044000004060404303A1000022688803FCC1004C03ADFC00517A4
:20068800DD000417DCC00317DC800217DC400117DC000017DEC00604F800283ADEFFFB042A
:20069000DC0000150400003484132A04DC8002158480011700800104DCC00315DFC00415DC
:20069800DC400115000D883A2027883A90801026008001449009883A0140018401BFFFC489
:2006A00090800B26000475008440020300C0003418D221048100000310E1883A0140030435
:2006A8008461883A0004750080C0000310CD883A9487883A00800034109227841887883AF1
:2006B00018C0000B9880000331003FCC2008937A10C5883A1085883A00C020341085883A62
:2006B80010C5883A2085883ADFC00417DCC00317DC800217DC400117DC000017DEC0050471
:2006C000F800283A21003FCC200003260080003410932804114000150080003410932804DF
:2006C80010800017F800283A21003FCC200003260080003410932704114000150080003400
:2006D0001093270410800017F800283A014000B429400104008002042880003500C000B401
:2006D80018000035008000B410800204110000350080014428800035188000371080004C58
:2006E0001005003A103FFC1EF800283ADEFFFC04DC0000150400003484132A04DC400115EB
:2006E8002023883A81000117DFC00315DC800215014001840004750084800203810000035E
:2006F00000C0003418D2210410E1883A84A1883A01400304000475008100000300C0003414
:2006F80018D25F8418C000031105883A10803FCC1004937A18C7883A0100203418C7883A0F
:200700001907883A10C5883A8C403FCC14400025DFC00317DC800217DC400117DC000017BB
:20070800DEC00404F800283ADEFFFD04DC0000150400003484132A0481000117DFC00215B6
:20071000DC4001150140018400047500844002038100000300C0003418D2210410E1883A55
:200718008461883A01400304000475008100000300C0003418D25F8418C000031105883A61
:2007200010803FCC1004937A18C7883A0100203418C7883A1907883A10C5883A108000233A
:2007280010803FCCDFC00217DC400117DC000017DEC00304F800283ADEFFFE04DC00001568
:20073000DFC001152021883A0001A3C01080002380C000838100004310C4703A1105D83AAD
:2007380010803FCCDFC00117DC000017DEC00204F800283ADEFFFB04DCC00315DC8002155B
:20074000DC400115DC000015DFC004152025883A2827883A0023883A0021883A9809883A7B
:200748000001CB808400004480C03FCC1463883A1CBFFA1E9007D07A88803FCC1884803ABC
:20075000DFC00417DCC00317DC800217DC400117DC000017DEC00504F800283ADEFFFD049E
:20075800DC400115DC000015DFC002152021883A0001C28014403FCC84003FCC00803FC4F1
:200760008080011E8C4000940080003410932A04110001170080003410922B842109883A5B
:200768002109883A2089883A0001CB8010803FCC1000011E8C403C5C8809883ADFC0021795
:20077000DC400117DC000017DEC003040001B8C1DEFFFC04DC800215DC400115DC000015B0
:20077800DFC003152021883A0001C28014403FCC8880004C1005003A048000441000241E48
:2007800080803FCC1480021E8880010C100020260400003484132A048080011710000A1EE2
:20078800010000342112D7840001CB8010803FCC14801426010000342112EC840001CB80B5
:2007900010803FCC14800F26808001171480051E01000034211298840001CB8010803FCCAB
:200798001480082680C001170080008418800A1E010000342112BC840001CB8010803FCCD4
:2007A0001480051E89003F4C0001B8C0000002060005883A0000010600800044DFC00317A2
:2007A800DC800217DC400117DC000017DEC00404F800283ADEFFFD04DC000015040000348E
:2007B00084132A04DC4001150080004484400117DFC00215808001150001CB8010803FCCDF
:2007B80084400115DFC00217DC400117DC000017DEC00304F800283ADEFFFD04DC0000159A
:2007C0000400003484132A04DC40011584400117810001152809883ADFC002150001CB8082
:2007C80010803FCC84400115DFC00217DC400117DC000017DEC00304F800283ADEFFFD04E0
:2007D000DC000115DFC00215D94000152021883A0001A3C010C00023D94000178180004365
:2007D8008100008329403FCC298A983A0108303A1906703A1947883A18C03FCC10C00025CE
:2007E000DFC00217DC000117DEC00304F800283ADEFFFD04DC0000150400003484132A0482
:2007E800DC40011584400117810001152809883A31403FCCDFC002150001F3C08440011599
:2007F000DFC00217DC400117DC000017DEC00304F800283ADEFFFD04DC400115DC0000150A
:2007F800044000442021883A0140003429526784000D883ADFC002150001F900880D883AA5
:200800008009883A01400034295268840001F9008009883A0140003429526984000D883AC0
:200808000001F9008009883A0140003429526A84000D883A0001F9008009883A0140003424
:2008100029526B84000D883A0001F9008009883A0140003429526C84000D883A0001F900A1
:200818008009883A0140003429526D84000D883A0001F9008009883A0140003429526E849E
:20082000000D883A0001F9008009883A0140003429526F84000D883A0001F9008009883AAD
:200828000140003429527084000D883A0001F9008009883A0140003429527184000D883A04
:200830000001F9008009883A0140003429527284000D883A0001F9008009883A01400034F4
:2008380029527384000D883A0001F9008009883A0140003429527484000D883A0001F90069
:200840008009883A0140003429527584000D883A0001F9008009883A014000342952768466
:20084800000D883A0001F9008009883A880D883A0140003429527784DFC00217DC4001174E
:20085000DC000017DEC003040001F901DEFFFD040080003410932704DC0000151400001779
:200858000140003429526F84000D883A8009883ADFC00215DC4001150001F9000440004419
:200860008009883A0140003429526E84000D883A0001F900880D883A8009883A014000346B
:20086800295270840001F9008009883A880D883A01400034295272840001F9008009883A3A
:20087000880D883A01400034295275840001F9008009883A0140003429527B84018001442E
:20087800DFC00217DC400117DC000017DEC003040001F901DEFFFD04008000341093270481
:20088000DC40011514400017DC000015DFC002150021883A800D883A0140003429527684F8
:200888008809883A0001F900010100040001B4C00140003429527A848809883A0001EF80D7
:2008900010803FCC8007883A840000441000051E18803FCC1007003A10800FE010C4B03A38
:20089800000003060080100480BFEA1E0080004410803FCCDFC00217DC400117DC0000171E
:2008A000DEC00304F800283ADEFFFE040080003410932704DC000015140000170140003447
:2008A80029527184000D883A8009883ADFC001150001F9008009883A0140003429527584C3
:2008B000000D883A0001F9008009883A0140003429527284000D883A0001F9008009883A1A
:2008B8000140003429526C84000D883ADFC00117DC000017DEC002040001F901DEFFFD044A
:2008C0000080003410932704DC00001514000017DC400115014000342952718404400044DB
:2008C8008009883A000D883ADFC002150001F900880D883A8009883A0140003429526C84C4
:2008D0000001F9008009883A880D883A01400034295272840001F9008009883A880D883AEA
:2008D80001400034295275840001F9008009883A0140003429527B8401800144DFC0021765
:2008E000DC400117DC000017DEC003040001F901DEFFFE040080003410932704DC000015DF
:2008E800140000170140003429527084000D883A8009883ADFC001150001F9008009883ACD
:2008F0000140003429527584000D883A0001F9008009883A0140003429527284000D883A36
:2008F800DFC00117DC000017DEC002040001F90100800034109328041180001720803FCCC1
:20090000DEFFFD04118F883A28803FCC00C0003418D3270411C5883ADC000015DFC002159B
:20090800DC4001152021883A1A0000171000020E0023883A000002062185883A28A3883A67
:200910003800020E000B883A00000106340B883A88803FCC00C00FC4188002368805883AE5
:200918000000040619C002162805883A000001068005883A14003FCC4009883A01400034E8
:2009200029527684800D883A0001F90088803FCC8084C03ADFC00217DC400117DC00001709
:20092800DEC00304F800283ADEFFE104D90014050140003429523204D9000E04018000C4A6
:20093000DFC01E15DCC01815DC801715DF001D15DDC01C15DD801B15DD401A15DD001915C1
:20093800DC401615DC00151500047880D9000F0401400034295230040180020400047880C3
:2009400000C00044010000440080003410932A0410C00115D9000945D8000505D8000545B8
:20094800D90009050025883ADCC00904D90014030080003410932A04148002050001DD002A
:2009500010803FCC100012260009883A00035F00010000342112A3840001CB80988000057F
:2009580001000034211298841023883A0001CB8001000034211296841021883A0001CB80F9
:200960001007883A80803FCC1000132600000E06010000342112A3840001CB80988000053E
:2009680001000034211298841023883A0001CB8001000034211296841021883A0001CB80E9
:200970001007883A0000040618803FCC1000022601000044000001060009883AD880050431
:200978001485883A1100000518C03FCC008000441880051E80803FCC1000031E01003FC44C
:200980000001D5C00000470624003FCC2000452688803FCC1000041E010000342112A384E6
:20098800800B883A0001F3C0010000342112A884000B883A0001F3C0000B883A0100003437
:20099000211298840001F3C0D8800C0400C00FC41485883A010000342112A98410C0000584
:200998000001CB80D8C001041C87883A010000342112AA84188000050001CB80D8C00204D4
:2009A0001C87883A010000342112A784188000050001CB80D8C003041C87883A010000341D
:2009A8002112A584188000050001CB80D8C004041C87883A010000342112AE8418800005AE
:2009B0000001CB80D8C0080411403FCC1C87883A18800005280B003A010000342112AE84D2
:2009B8000001F3C0010000342112A484800B883A0001F3C0010000342112A584000B883A7C
:2009C0000001F3C0800B883A010000342112A5840001F3C0010000342112A684000B883A72
:2009C8000001F3C094800044008000849CC0004490BF7E1ED8800503D88013051000021E74
:2009D000D880054310011E260009883A000B883AD8000705D8000745D8000D05D8000D455E
:2009D8000001B280000B883A0009883AD88011150001B040D90011171021883A84C0054444
:2009E0000001FD400039883A00022FC000010A06E0C03FCCD8800E0410CB883AD8800504A9
:2009E8001405883A10C000030080003410932A0414000205010000342112A9848400004444
:2009F00018001026294000030001F3C0D8800F041485883A11400003010000342112AA84C9
:2009F8000001F3C0010000342112A784000B883A0001F3C0010000342112A78401400044FF
:200A00000001F3C00080008480BFE11E010001040001B4C00023883ADD000604DDC00D04EB
:200A0800DD800704DD400C04D88005041445883A10C000030080003410932A04144002050A
:200A100018005426010000342112AD84A00000050001CB801021883A010000342112AC841F
:200A180084003FCC0001CB8080004A1E10803FCC1000481E00800044A080000500000306F8
:200A2000000B883A20000626A1800005010000342112AB840001CB8010803FCC100AC03AE5
:200A28008400004480C03FCC00800084280D883A29003FCC10FFF22EB88000032007003AA1
:200A3000A14000052884B03AB88000051800311E0140050401000034211280840001F3C01C
:200A3800010100040001B4C000021F401021883A0100003421128084000B883A84003FCC07
:200A40000001F3C08000022601BFFFC400000506D900111701400034295276840001EF8051
:200A4800100D883A30C03FCC98803FCC10C0022E34CBC83A00000106998BC83AA9000003B7
:200A500098C03FCC20803FCC1880022E24C9C83A000001069909C83AB080000310000326AA
:200A580028C03FCC20803FCC1880082ED8C00A041C47883A1F000005D8C01203D8800B040F
:200A60001445883A10C00005A980000500800044B08000058C40004400800084A500004462
:200A6800BDC00044B5800044AD40004488BF9E1E948000440080020490807C1EE0803FCC0D
:200A70001440121ED8C01403008000441880131ED880130310000326D8800D0310C00126A0
:200A78000039883AD880054310000426D8C00D4300800044188001260039883A00C000441F
:200A80000080003410932A0410C00205E7000044E0C03FCC0080008410C0672ED8000005DE
:200A8800D80000450021883A00022880D823883AD88005041405883A148000030080003460
:200A900010932A041400020590004626D88007041405883A1080000310000F1ED8800104F3
:200A98001405883A11400003010000342112A9840001F3C0D88002041405883A1140000339
:200AA000010000342112AA840001F3C0008000448880000500001206D8800A041405883AC2
:200AA80010C00003D8800E04010000342112A98410C5883A114000030001F3C0D8800B0456
:200AB0001405883A10C00003D8800F04010000342112AA8410C5883A114000030001F3C0D8
:200AB800D88003041405883A11400003010000342112A7840001F3C0D88004041405883A0E
:200AC00011400003010000342112A5840001F3C0D88008041405883A1140000301000034B5
:200AC8002112AE840001F3C0010000342112A484000B883A0001F3C001400044010000342A
:200AD000211294840001F3C00009883A00035F0089400003010000342112A884280B003A0D
:200AD8000001F3C0D88009041405883A108000031000041E010000342112A384000B883AE9
:200AE0000001F3C090C03FCC008000441880021E01003FC40001D5C0840000440080008405
:200AE8008C40004480800626003FA1060021883ADC801205003EF6060025883A003FFB0615
:200AF0000005883ADFC01E17DF001D17DDC01C17DD801B17DD401A17DD001917DCC01817B3
:200AF800DC801717DC401617DC001517DEC01F04F800283A21003FCC2008937A28803FCCD4
:200B000000C020341085883A20C9883A1085883A1105883AF800283A01400034295233848F
:200B08000200203401C0283439F8000429800E0428800003290000431085883A1085883AA5
:200B10001207883A1900002511C5883A110000252940008429BFF61EF800283ADEFFF004CA
:200B1800D9000304000B883A01800404DFC00F15DCC00E15DC800D15DC400C15DC000B154E
:200B200000047B40000B883A01800404D900070400047B4001800104D9A1883AD809883A98
:200B2800014000342952438400047880DC4002048009883A01400034295242840180010451
:200B300000047880018001048809883A0140003429524184000478800009883A000B883A87
:200B38000001B2801009883A800B883A000D883A0001F9000009883A000B883A0001B280AE
:200B4000000D883A880B883A1009883A0001F9000100003421130D840001CB8001400044D1
:200B4800010000342112DC841166703A0001F3C00009883A000B883A0001B2801009883A4A
:200B5000D80B883A018000840001F9000025883A0023883A0021883A014002440100003476
:200B5800211305840001F3C0010000342112F5840001CB8010803FCC98C03FCC8400004419
:200B60000140004401000034211305841880131E0001F3C0010000342112DD840001CB806C
:200B680011403C0C280BD13A108003CCD9C00304D9800704394F883A308D883A38C000036F
:200B7000310000032825883A18C00044210000441023883A38C000053100000580FFFFCC2F
:200B780000803FC418BFDC1EDA800303DA40070301400044DA000344D9C0074402C0040431
:200B80004100000350C03FCC4200004420803FCC49803FCC1880022E2015883A2825883A23
:200B880038C0000339C0004418803FCC3080022E1813883A2823883A2940004428803FCC38
:200B900012FFEF1E00800034109323441480000500800034109323040009883A000B883ABA
:200B9800144000050001B280DC4001041021883A1009883A880B883ADC8002040180004446
:200BA0000001F9008009883A900B883A018000440001F90000800144840001181421C83A3B
:200BA800880B883A8009883A018000440001F9008009883A900B883A018000440001F90067
:200BB000DFC00F17DCC00E17DC800D17DC400C17DC000B17DEC01004F800283ADEFFFE04F7
:200BB8000100003421129284DFC00115DC0000150001CB8010803FCC100055260100003452
:200BC000211306840001CB8010803FCC100050260100003421130B840001CB8010803FCC0B
:200BC80010004B260400003484132904808000031000071E0002C5C00100003421130284E2
:200BD000000B883A0001F3C0008000448080000501000034211307840001CB801009883AA0
:200BD80020BFF9C410803FCC00C001C418800236000D883A0000050620FFFB4418C03FCC56
:200BE0000080014410C5803A11800044008000341093230410C000030080003410932344BD
:200BE8001080000330CB883A28C03FCC010003C430A1883A20C0022E200B883A000002064A
:200BF0001800011E014001C429403FCC01000034211308840001F3C080803FCC00C003C4F9
:200BF8001880022E1821883A000002061000011E040001C484003FCC0100003421130A8494
:200C0000800B883A0001F3C0800AD0BA01000034211309840001F3C00100003421130C841C
:200C0800014000440001F3C00100003421130B84000B883A0001F3C00100003421130E841F
:200C1000014000440001F3C000800044000001060005883A10803FCCDFC00117DC000017B4
:200C1800DEC00204F800283ADEFFFB040100003421129284DFC00415DC000115DC80031546
:200C2000DC400215D80000150001CB801021883A010000342112598484003FCC0001CB8035
:200C28008000482610C0004C008000441880451E01000034211244840001CB8014403FCC08
:200C30008880010C1025003A01000034211244840080014414A5C83A0001CB80140000CC44
:200C3800008000C4808004268886703A008000841880341E0000250601000034211245842C
:200C40000001CB800100003421124784D88000050001CB800100003421124884D88000459B
:200C48000001CB80D88000858C06703A00800084D80000C51880081E010000342112468496
:200C50000001CB80D80B883A9009883A11803FCC0001F900000008061C00071E9009883AF8
:200C5800D80B883A0001EF8011403FCC01000034211246840001F3C00100003421124484F5
:200C6000000B883A0001F3C000000E0601000034211245840001CB8001000034211247842F
:200C6800D88000050001CB800100003421124884D88000450001CB80D8800085D80000C52C
:200C7000003FDD06DFC00417DC800317DC400217DC000117DEC00504F800283ADEFFEE0419
:200C7800DD800E15DC400915DC0008152023883A2821883AD809883A014000342952498439
:200C8000302D883A01800804DFC01115DF001015DD400D15DD000C15DCC00B15DC800A156B
:200C8800DDC00F153825883ADCC01203000478800080003410932A040009883A000B883AA2
:200C900014000205144001150001B2801039883A002B883AD829883A98C03FCC9009883A13
:200C9800A82F883A1800061EA1400003294B883A294B883A29403FCC294020D400000B0635
:200CA000008000449009883A1880021EA140000300000606A4000003814000CC8020D0BA0F
:200CA8000001F3C0B009883A814001CC0001F3C0010100040001B4C00140003429527A8452
:200CB000E009883A0001EF8010803FCCAD400044A50000440440004410001926B8803FCC3A
:200CB80098C03FCC10000A1E180026261C402E26DC0001439009883A814000CC8020D0BA3B
:200CC0000001F3C0B009883A814001CC0000230618002826D889883A0080004418802D26F6
:200CC800240000039009883A814000CC8020D0BA0001F3C0B009883A814001CC00002706E9
:200CD00000800804A8BFC41E9C003FCC8000071ED94001439009883A294B883A294B883ABF
:200CD80029403F0C294020140000260684401E1ED94001439009883A0001F3C08005883ACC
:200CE00000002206D94001439009883A294B883A294B883A29403F0C294020140001F3C0A3
:200CE8000080008400001906D94001439009883A003FFA06D885883A114000039009883A04
:200CF000294B883A294B883A29403F0C2940201400000206214000039009883A0001F3C0AC
:200CF8000005883A00000906DC0001439009883A814000CC8020D0BA0001F3C0B009883AA5
:200D0000814001CC0001F3C08805883ADFC01117DF001017DDC00F17DD800E17DD400D17EF
:200D0800DD000C17DCC00B17DC800A17DC400917DC000817DEC01204F800283ADEFFF80472
:200D100028803FCCDD800615DD400515DC800215DFC00715DD000415DCC00315DC40011557
:200D1800DC0000152825883A202D883A302B883A10000626040001C40027883A0000050696
:200D20008140004429403FCC00001B060021883A04C001C485003FCCA00B883AB009883A35
:200D28000001F3C0010100040001B4C090803FCC0140003429527A84A809883A1000021ED0
:200D30000001EF80000003060001EF8010803FCC1005003A1023883A10803FCC90C03FCCE5
:200D38001000092680BFFFC410803FCC00C0014418BFE32EA00B883A0100003421128684F3
:200D40000001F3C0000008061800021E8400004400000106843FFFC480C03FCC98803FCCD6
:200D480018BFDC1E9821883A80C03FCC008001C41880031E88803FCC1005003A0000060688
:200D50001800041E88803FCC1000022600800084000001060005883ADFC00717DD800617F5
:200D5800DD400517DD000417DCC00317DC800217DC400117DC000017DEC00804F800283AF4
:200D6000DEFFFC04DC0000150100003421128A840400003484132A04DFC00315DC80021508
:200D6800DC40011584800117800001150001CB80000B883A0009883A1023883A0001B2807B
:200D70001009883A89803FCC0140003429527D840001F90084800115DFC00317DC80021741
:200D7800DC400117DC000017DEC00404F800283ADEFFF0040080003410932A04DFC00F151B
:200D8000DF000E15DDC00D15DD800C15DD400B15DD000A15DCC00915DC800815DC40071570
:200D8800DC00061510C0011710800203D9000545D8C00415D88005051800171E010000341F
:200D900021125A840001CB801400004C8000041ED88005431000021E00C0004400034306C4
:200D980000C0004400800034109329C410C00005000358000100003421125A84000B883AB0
:200DA0000001F3C00100003421128984000B883A0001F3C000001206D900041700800044B9
:200DA8002080061E01000034211294840001CB80D8C0041710E0703A00000906D90004174B
:200DB00000800084208002260021883A000004060100003421125B840001CB801400004C77
:200DB800DC40054300C0004488C30F2680803FCC10C002260007883A00031C060009883A77
:200DC000000B883A0001B2801021883A0009883A000B883A0001B0408009883A0001FD400E
:200DC80088003A260080003410932A04100001150023883A0080003410932A0401000034D9
:200DD00021128984144002050001CB801021883A0100003421128A840001CB8084003FCCD8
:200DD800100D883A020000448000041E00800034109329C4108000031010C03A01C000344E
:200DE00039D329843940000300800034109329C430C03FCC29003FCC8C4000441200000524
:200DE80020C0012E300B883A008001843940000588BFE01E0400003484132A0401000034E5
:200DF00021128D84800002050001EB4000C00044044000348C5329440100003421128D84AB
:200DF80080C00205888000050001EB4089000003100B883A10C03FCC20803FCC10C0012E6D
:200E00002809883A89000005000007068009883A0140003429527D840001EF8000C00034A4
:200E080018D3298418800005008000341093298410C000031800021E01000944000005062D
:200E1000008000441880021E01000AC40000010601000C0400800034109329441140000347
:200E180021003FCC00023F00102D883A000214C0010100040001B4C0B0803FCC1000CA1ECA
:200E200000800034109329C41080000310008B26D88005431000081E0080003410932A04BF
:200E280010C0011700800044188003260025883A0027883A0000260600C000440080003489
:200E300010932A0410C001150025883A0027883A0021883A0080003410932A04010000347E
:200E380021129984140002050001EB4010803FCC1080201C0440004410BFE004800B883A14
:200E40008809883A018000343193218401C0003439D299841000090ED800001500031DC010
:200E480010C03FCC1C40021E1825883A00000306008000841880011E1827883A84000044A7
:200E50000080008480BFE31ED88005431000051E0080003410932A0410C0011700800084FA
:200E58001880491E00C000840080003410932A0410C001150021883A0080003410932A0464
:200E60000100003421129A84140002050001CB8010803FCC1080201C0440008410BFE004A3
:200E6800800B883A8809883A018000343193218401C0003439D29A841000090ED80000157A
:200E700000031DC010C03FCC008000441880021E1825883A000002061C40011E1827883AA8
:200E7800840000440080008480BFE31ED88005431000041E0080003410932A04108001174F
:200E80001400211E0080003410932A04100001150021883A0080003410932A0401000034B7
:200E880021129B84140002050001CB8010803FCC1080201C10BFE004800B883A0009883A5F
:200E9000018000343193218401C0003439D29B8410000A0ED800001500031DC010C03FCC35
:200E9800008000441880021E1825883A00000306008000841880011E1827883A8400004432
:200EA0000080018480BFE31E94003FCC014000448140082698C03FCC008000841880021EBB
:200EA8001805883A000004060100003421127C840001F3C08005883A102D883A01000034AA
:200EB00021132A042080011710000326D8C00543008000441880341E200001150025883A24
:200EB8000023883A0080003410932A040100003421129184144002050001CB800100003457
:200EC000211292841021883A0001CB8010803FCC84003FCC1000202680001F260080003491
:200EC8001093298410C00003008004040100003421129C84014002841880031E0100003422
:200ED00021129C84014000440001F3C00100003421127F84014001C40001F3C0008000844D
:200ED800880B883A0009883A0180003431930F8401C0003439D31084D880001500031DC0EC
:200EE0001025883A0100003421127F84000B883AB4ACB03A0001F3C08C40004400800184B0
:200EE80088800226003FCF060025883A000239000140003429532A04288001170100008420
:200EF00011000326D8C00543008000441880591E290001150027883A0080003410932A0448
:200EF800010000342112958414C002050001CB8010803FCC0100003421128F8410004526A1
:200F00000080003410932984140000030001CB8001000034211290841023883A0001CB80AD
:200F08001007883A0080004401000AC41400012E01000C04180B883A88803FCC18C03FCC2E
:200F10000480004421003FCC1880012E880B883A29403FCC00023F001021883A000214C033
:200F1800010100040001B4C080803FCC014007C401000034211281841000241E0001F3C0B4
:200F20000100003421128284014001040001F3C0018000343193218401C0003439D2A28405
:200F2800980B883A01000084DC80001500031DC00100003421128284000B883A1023883A3E
:200F30000001F3C00100003421128384014001040001F3C0018000343193218401C0003471
:200F380039D2A184980B883A01000084DC80001500031DC01021883A0100003421128384CC
:200F4000000B883A0001F3C08C20B03A000239008025883A0100003421125B84000B883AC4
:200F48000001F3C09CC0004400800084B4ACB03A98BFA91E0100003421132A04208001177A
:200F500000C0004410C00226D880054310C14E1E20C00115D8000115D8C001170080003460
:200F580010932A04010000342112968410C002050001CB8001000034211294841027883A8A
:200F60000001CB8001000034211293841023883A0001CB801021883A84003FCC000214C00D
:200F680080000E26008000341093298410C0000300800404188004260100003421129E840A
:200F700001400284000003060100003421129E84014001C40001F3C0B4ACB03A00023900C8
:200F780098803FCC10011E2688803FCC10011C26000B883A0009883A0080003410932984DF
:200F8000140000030001B2800100003421128484D88003150001CB8001000034211285846A
:200F88001027883A0001CB800100003421128684D88002450001CB80010000342112878434
:200F9000D88002850001CB800100003421128B84D88002C50001CB80008000441400033623
:200F980001000AC4D90002050000020600800C04D880020501000A04000B883A00023F0076
:200FA000102B883A00022FC0010100040001B4C0A8803FCC100003260039883A0025883A7A
:200FA800000054060100003421128084014003040001F3C001000034211297840001CB8098
:200FB00010803FCC1000032605C001040029883A00000206982F883A9829883AA025883AFD
:200FB800002B883A0000280601000034211284840001F3C00023883A002B883A0021883A25
:200FC000800B883A01000034211285840001F3C0010100040001B4C0D900031701400034BC
:200FC80029527A84840000440001EF8010803FCC88C0004410000E2688BFFFC410803FCC48
:200FD00000C00144188005368940004429403FCC01000034211285840001F3C090803FCC68
:200FD80010000C1E88803FCC1000F9260000090600800204182B883A1823883A80BFE01EA9
:200FE000182B883A9480004491403FCCB8803FCC117FD52E0039883AA9003FCC008000842F
:200FE8002080061EA0C03FCC90803FCC10C0011E2039883A0540004400000E060080004434
:200FF0000540004420800B1EB8C03FCC90803FCC10C0081E99403FCC0100003421128484A7
:200FF8000001F3C0D940024301000034211285840001F3C00100003421128084000B883A69
:201000000001F3C0000228800100003421128084014002040001F3C001000C04000B883A2D
:2010080000023F00102F883A000214C0010100040001B4C0B8803FCC1000111ED980031740
:201010000100003421128684000B883A000343C01025883A10C03FCC008000841880021EED
:201018001839883A0000060618000526D9400283010000342112868405C000440001F3C089
:20102000000239000009883A000B883A00023F001029883A00022FC0010100040001B4C035
:20102800A0803FCC1020C03A8000061ED9800317010000342112878401400044000343C03E
:201030001025883A90C03FCC008000841880021E1839883A000007068000011E1800052690
:20103800D94002C30100003421128784050000440001F3C000022880010000342112808434
:20104000000B883A0001F3C0D9000203000B883A00023F001021883A10803FCC10003E1E29
:2010480000022FC0010100040001B4C0014003C401000034211280840001F3C0D9400117C3
:20105000048000449009883A018000343193218401C0003439D29D84DC80001500031DC0CD
:201058001023883A04C0008410803FCC14C0021E8023883A1039883A00022880000214C0BC
:201060000100003421128084014006040001F3C0D940011701800034319321849009883A5B
:2010680001C0003439D2A084DC80001500031DC010803FCC100001269839883A01000BC4BE
:20107000000B883A00023F000100003421128084014006C40001F3C0D94001179009883A9B
:20107800018000343193218401C0003439D29F84DC80001500031DC010803FCC10000126F4
:201080009839883A0100003421128084000B883A0001F3C08821883A0002390084003FCC9B
:201088000100003421128884800B003A0001F3C0A8803FCC1000081EB8803FCC1000061E7B
:20109000A0803FCC1000041E8000031E000042060005883A00000106008000441025883A71
:201098000100003421129484000B883A0001F3C0D8C0011700800084B4ACB03A18C000441D
:2010A000D8C0011518BEB41E0080003410932A041080011710000326D8C0054300800044D0
:2010A8001880191E0021883A0080003410932A04B0C03FCC018000C40100003421127E84C7
:2010B0000140008401C0004414000205100001151980092619C0082600800084300B883A45
:2010B8000100003421127E8418800326380B883A0100003421127E840001F3C08400004402
:2010C0000080018480BFE81ED90005030080003410932A0400C0004411000205D900041750
:2010C80011000115000011060009883A000B883A0001B2801021883A000B883A0009883A74
:2010D0000001B0408009883A0001FD40003CF50607000084003F1006E4403FCC008000843C
:2010D80088BFBB1E8805883A003FBC061805883ADFC00F17DF000E17DDC00D17DD800C179F
:2010E000DD400B17DD000A17DCC00917DC800817DC400717DC000617DEC01004F800283A3D
:2010E800DEFFEE04DD800E15DC400915DC0008152023883A2821883AD809883A014000343E
:2010F00029525184302D883A01800804DFC01115DF001015DD400D15DD000C15DCC00B1522
:2010F800DC800A15DDC00F153825883ADCC01203000478800080003410932A040009883A80
:20110000000B883A14000205144001150001B2801039883A002B883AD829883A98C03FCC2C
:201108009009883AA82F883A1800061EA1400003294B883A294B883A29403FCC29402094B6
:2011100000000B06008000449009883A1880021EA140000300000606A4000003814000CCB3
:201118008020D0BA0001F3C0B009883A814001CC0001F3C0010100040001B4C0014000342C
:2011200029527A84E009883A0001EF8010803FCCAD400044A500004404400044100019268F
:20112800B8803FCC98C03FCC10000A1E180026261C402E26DC0001439009883A814000CCAD
:201130008020D0BA0001F3C0B009883A814001CC0000230618002826D889883A0080004442
:2011380018802D26240000039009883A814000CC8020D0BA0001F3C0B009883A814001CCB6
:201140000000270600800804A8BFC41E9C003FCC8000071ED94001439009883A294B883A53
:20114800294B883A29403FCC294020140000260684401E1ED94001439009883A0001F3C0A8
:201150008005883A00002206D94001439009883A294B883A294B883A29403FCC29402014DB
:201158000001F3C00080008400001906D94001439009883A003FFA06D885883A1140000336
:201160009009883A294B883A294B883A29403FCC2940201400000206214000039009883AD0
:201168000001F3C00005883A00000906DC0001439009883A814000CC8020D0BA0001F3C0F7
:20117000B009883A814001CC0001F3C08805883ADFC01117DF001017DDC00F17DD800E1741
:20117800DD400D17DD000C17DCC00B17DC800A17DC400917DC000817DEC01204F800283A96
:20118000F800283A29001B2E28001A16008000440007883A01C007C40000030619C01326F7
:2011880018C0004428000416294B883A1085883A293FFA3610000D260007883A214002361F
:201190002149C83A1886B03A1004D07A280AD07A103FFA1E300002262005883AF800283A71
:201198001809883A2005883AF800283A0007883A003FF806008000440007883A003FEF064C
:2011A000DEFFFE04DC000015DFC001150021883A20000C16000D883A28000E1600046040C6
:2011A8001007883A8005003A1000011E00C7C83A1805883ADFC00117DC000017DEC002046A
:2011B000F800283A0109C83A04000044000D883A283FF20E014BC83A8021003A003FEF06DE
:2011B800DEFFFF04DFC00015018000442807883A2000041628000C16DFC00017DEC00104F0
:2011C000000460410109C83A28000B16180B883A01800044000460400085C83ADFC000178A
:2011C800DEC00104F800283A014BC83ADFC00017DEC00104000460410147C83A003FF3063C
:2011D000000D883A00046041018000440004604120000A260007883A2080004C1005003ACD
:2011D8002008D07A1000011E1947883A294B883A203FF91E1805883AF800283A0007883A86
:2011E0001805883AF800283A2011883A30000726000F883A29C5883A1100000341C7883A07
:2011E80039C000441900000539BFFA1E4005883AF800283A30000526310D883A2005883AD9
:2011F000114000051080004411BFFD1E2005883AF800283ADEFFFF040009883ADFC000152A
:2011F8000004804000048000D1200117D1600217D1A00317DFC00017DEC0010400006C41AB
:20120000F800283ADEFFFF04DFC0001500048240008000441001703ADFC00017DEC0010442
:20120800F800283A000170FAF800283A6040200004C0A0808464442408E4C4A40D0B0A0934
:2012100011100F0E15141312191817161D1C1B1A1F1F1E1E011F1F1F030202010404040476
:2012180005040404090807060D0C0B0A11100F0E04141312080706050C0B0A090F0F0E0D61
:20122000000F0F0F070503010A040B090000000000000C0600000000008000000100020DAD
:2012280001000100000000000000000001000000010000010100000100000001000000009E
:2012300003020100070605040002010000031CFFC20A3004650CC00B000E000D0010000FEB
:2012380000120011FC140013FF163F1500180F17001D2019401F601E14210020C92308220B
:2012400000250024022000260104000406030002006A00C0006B00FF006C00FF006D00FF7E
:20124800006E00FF1E1F00FF01001C1D05040302090807060D0C0B0A11100F0E15141312BD
:20125000191817161E1F1B1A01001C1D05040302090807060D0C0B0A11100F0E151413128E
:201258001918171607311B1A0631008000000040003E0001013E0001023E000204000004EB
:20126000040400F0051F000F04410060040000F0010000F00100000101000001022400018E
:20126800021D000406170004071700400619008007190040001800800118000102180002F7
:2012700003180004041800080518001006180020001D0040011D0001001900020718003FBB
:201278000025008003240001062800F8041D0040040100700403001004300030000E0030D4
:20128000001A000F0335001F000B00F800130007051C0007050200E0041100E0000A007033
:20128800010100070400000203030010020000180500001C031B00E0001D00380200001F72
:201290000500001C001200E0000F00010322000101000008040200020003001000060001CA
:2012980000000001001E0001003E00FF001600FF001300FF001F001F0221001F001C007C9A
:2012A000001D001F0126001F0025003E0210001F060100040301004006100008020100C0E8
:2012A80000010004030200010002001800260007012600010226000206050004070100402B
:2012B00002010080060200040736004006360080000A0040030B001F050A00F80023002095
:2012B8000324001F052300F80101002005390002010000E00350000200500008001200FFAF
:2012C00006120001031300400102000807280002070200800033008003390000023500387C
:2012C8000003000C014200030402000E06320030043C00C0003800700634001F00360040BE
:2012D0000237000F0702007C01320080001900020203000105030004077600200100008033
:2012D80001370002043300020037001000020001017100010076001E010100FF006F0002C0
:2012E000051D000105240020012300200223000202760004071B0004061B00800021004073
:2012E8000421000F020100700624000403230040020000080143000400430002020200010F
:2012F0000003000400230001007600010176000103760002047600080576001006760020A0
:2012F80000250040002600FF002B00FF002C00FF002700FF002800FF002900FF002A00FF59
:20130000004600FF004700FF000000FF00E7000100010001040E0001060900F000090040FE
:201308000415001F060700F0060600C0050000C0000D002005080001050100E005130020A6
:20131000061200E0000A00C0000B003F0414003F070900100700008007010080060A00809B
:20131800057100C0057200E0001400E0026F000F0701001C040200800102003006020002CD
:20132000056F004000000020000000000000000000000000000000000000000000000000D9
:201328000000000000000000000000000000000000000000000000000000000000000000A5
:2013300000000000000000000000000000000000000000000000000000000000000000009D
:20133800000000000000000000000000000000000000000000000000000000000000000095
:2013400000000000000000000000000000000000000000000000000000000000000000008D
:20134800000000000000000000000000000000000000000000000000000000000000000085
:2013500000000000000000000000000000000000000000000000000000000000000000007D
:20135800000000000000000000000000000000000000000000000000000000000000000075
:2013600000000000000000000000000000000000000000000000000000000000000000006D
:20136800000000000000000000000000000000000000000000000000000000000000000065
:2013700000000000000000000000000000000000000000000000000000000000000000005D
:20137800000000000000000000000000000000000000000000000000000000000000000055
:2013800000000000000000000000000000000000000000000000000000000000000000004D
:20138800000000000000000000000000000000000000000000000000000000000000000045
:2013900000000000000000000000000000000000000000000000000000000000000000003D
:20139800000000000000000000000000000000000000000000000000000000000000000035
:2013A00000000000000000000000000000000000000000000000000000000000000000002D
:2013A800000000000000000000000000000000000000000000000000000000000000000025
:2013B00000000000000000000000000000000000000000000000000000000000000000001D
:2013B800000000000000000000000000000000000000000000000000000000000000000015
:2013C00000000000000000000000000000000000000000000000000000000000000000000D
:2013C800000000000000000000000000000000000000000000000000000000000000000005
:2013D0000000000000000000000000000000000000000000000000000000000000000000FD
:2013D8000000000000000000000000000000000000000000000000000000000000000000F5
:2013E0000000000000000000000000000000000000000000000000000000000000000000ED
:2013E8000000000000000000000000000000000000000000000000000000000000000000E5
:2013F0000000000000000000000000000000000000000000000000000000000000000000DD
:2013F8000000000000000000000000000000000000000000000000000000000000000000D5
:201400000000000000000000000000000000000000000000000000000000000000000000CC
:201408000000000000000000000000000000000000000000000000000000000000000000C4
:201410000000000000000000000000000000000000000000000000000000000000000000BC
:201418000000000000000000000000000000000000000000000000000000000000000000B4
:201420000000000000000000000000000000000000000000000000000000000000000000AC
:201428000000000000000000000000000000000000000000000000000000000000000000A4
:2014300000000000000000000000000000000000000000000000000000000000000000009C
:20143800000000000000000000000000000000000000000000000000000000000000000094
:2014400000000000000000000000000000000000000000000000000000000000000000008C
:20144800000000000000000000000000000000000000000000000000000000000000000084
:2014500000000000000000000000000000000000000000000000000000000000000000007C
:20145800000000000000000000000000000000000000000000000000000000000000000074
:2014600000000000000000000000000000000000000000000000000000000000000000006C
:20146800000000000000000000000000000000000000000000000000000000000000000064
:2014700000000000000000000000000000000000000000000000000000000000000000005C
:20147800000000000000000000000000000000000000000000000000000000000000000054
:2014800000000000000000000000000000000000000000000000000000000000000000004C
:20148800000000000000000000000000000000000000000000000000000000000000000044
:2014900000000000000000000000000000000000000000000000000000000000000000003C
:20149800000000000000000000000000000000000000000000000000000000000000000034
:2014A00000000000000000000000000000000000000000000000000000000000000000002C
:2014A800000000000000000000000000000000000000000000000000000000000000000024
:2014B00000000000000000000000000000000000000000000000000000000000000000001C
:2014B800000000000000000000000000000000000000000000000000000000000000000014
:2014C00000000000000000000000000000000000000000000000000000000000000000000C
:2014C800000000000000000000000000000000000000000000000000000000000000000004
:2014D0000000000000000000000000000000000000000000000000000000000000000000FC
:2014D8000000000000000000000000000000000000000000000000000000000000000000F4
:2014E0000000000000000000000000000000000000000000000000000000000000000000EC
:2014E8000000000000000000000000000000000000000000000000000000000000000000E4
:2014F0000000000000000000000000000000000000000000000000000000000000000000DC
:2014F8000000000000000000000000000000000000000000000000000000000000000000D4
:201500000000000000000000000000000000000000000000000000000000000000000000CB
:201508000000000000000000000000000000000000000000000000000000000000000000C3
:201510000000000000000000000000000000000000000000000000000000000000000000BB
:201518000000000000000000000000000000000000000000000000000000000000000000B3
:201520000000000000000000000000000000000000000000000000000000000000000000AB
:201528000000000000000000000000000000000000000000000000000000000000000000A3
:2015300000000000000000000000000000000000000000000000000000000000000000009B
:20153800000000000000000000000000000000000000000000000000000000000000000093
:2015400000000000000000000000000000000000000000000000000000000000000000008B
:20154800000000000000000000000000000000000000000000000000000000000000000083
:2015500000000000000000000000000000000000000000000000000000000000000000007B
:20155800000000000000000000000000000000000000000000000000000000000000000073
:2015600000000000000000000000000000000000000000000000000000000000000000006B
:20156800000000000000000000000000000000000000000000000000000000000000000063
:2015700000000000000000000000000000000000000000000000000000000000000000005B
:20157800000000000000000000000000000000000000000000000000000000000000000053
:2015800000000000000000000000000000000000000000000000000000000000000000004B
:20158800000000000000000000000000000000000000000000000000000000000000000043
:2015900000000000000000000000000000000000000000000000000000000000000000003B
:20159800000000000000000000000000000000000000000000000000000000000000000033
:2015A00000000000000000000000000000000000000000000000000000000000000000002B
:2015A800000000000000000000000000000000000000000000000000000000000000000023
:2015B00000000000000000000000000000000000000000000000000000000000000000001B
:2015B800000000000000000000000000000000000000000000000000000000000000000013
:2015C00000000000000000000000000000000000000000000000000000000000000000000B
:2015C800000000000000000000000000000000000000000000000000000000000000000003
:2015D0000000000000000000000000000000000000000000000000000000000000000000FB
:2015D8000000000000000000000000000000000000000000000000000000000000000000F3
:2015E0000000000000000000000000000000000000000000000000000000000000000000EB
:2015E8000000000000000000000000000000000000000000000000000000000000000000E3
:2015F0000000000000000000000000000000000000000000000000000000000000000000DB
:2015F8000000000000000000000000000000000000000000000000000000000101101505A7
:00000001FF
