Restore Archived Project report for RefDesign_SI5341
Mon Jun 01 14:33:15 2015
Quartus II 64-Bit Version 14.1a10s.0 Build 656 01/28/2015 SJ Full Version


---------------------
; Table of Contents ;
---------------------
  1. Legal Notice
  2. Restore Archived Project Summary
  3. Restore Archived Project Messages
  4. Files Restored
  5. Files Not Restored



----------------
; Legal Notice ;
----------------
Copyright (C) 1991-2015 Altera Corporation. All rights reserved.
Your use of Altera Corporation's design tools, logic functions 
and other software and tools, and its AMPP partner logic 
functions, and any output files from any of the foregoing 
(including device programming or simulation files), and any 
associated documentation or information are expressly subject 
to the terms and conditions of the Altera Program License 
Subscription Agreement, the Altera Quartus II License Agreement,
the Altera MegaCore Function License Agreement, or other 
applicable license agreement, including, without limitation, 
that your use is for the sole purpose of programming logic 
devices manufactured by Altera and sold by Altera or its 
authorized distributors.  Please refer to the applicable 
agreement for further details.



+-------------------------------------------------------------------------+
; Restore Archived Project Summary                                        ;
+---------------------------------+---------------------------------------+
; Restore Archived Project Status ; Successful - Mon Jun 01 14:33:15 2015 ;
; Revision Name                   ; RefDesign_SI5341                      ;
; Top-level Entity Name           ; RefDesign_SI5341                      ;
; Family                          ; Arria 10                              ;
+---------------------------------+---------------------------------------+


+-----------------------------------+
; Restore Archived Project Messages ;
+-----------------------------------+
Info: Successfully restored 'D:/rxc_users/FLA/00000227/TestDesigns_ES2/Clock_Generator/syn/RefDesign_SI5341/archive_RefDesign_SI5341.qar' into the 'archived_projects/RefDesign_SI5341' directory
Info: Generated report 'RefDesign_SI5341.restore.rpt'


+-----------------------------------------------------------------------------------------------------------------+
; Files Restored                                                                                                  ;
+-----------------------------------------------------------------------------------------------------------------+
; File Name                                                                                                       ;
+-----------------------------------------------------------------------------------------------------------------+
; qar_info.json                                                                                                   ;
; TestDesigns/Clock_Generator/src/A10/mw_ip/pll_sys/pll_sys.sip                                                   ;
; TestDesigns_ES2/Clock_Generator/src/A10/mw_ip/pll_sys.qsys                                                      ;
; TestDesigns_ES2/Clock_Generator/src/A10/mw_ip/pll_sys.sopcinfo                                                  ;
; TestDesigns_ES2/Clock_Generator/src/A10/mw_ip/pll_sys/altera_iopll_150/sim/pll_sys_altera_iopll_150_l5koy5q.vo  ;
; TestDesigns_ES2/Clock_Generator/src/A10/mw_ip/pll_sys/altera_iopll_150/synth/pll_sys_altera_iopll_150_zrlzrui.v ;
; TestDesigns_ES2/Clock_Generator/src/A10/mw_ip/pll_sys/altera_iopll_150/synth/pll_sys_pkg.vhd                    ;
; TestDesigns_ES2/Clock_Generator/src/A10/mw_ip/pll_sys/pll_sys.bsf                                               ;
; TestDesigns_ES2/Clock_Generator/src/A10/mw_ip/pll_sys/pll_sys.cmp                                               ;
; TestDesigns_ES2/Clock_Generator/src/A10/mw_ip/pll_sys/pll_sys.csv                                               ;
; TestDesigns_ES2/Clock_Generator/src/A10/mw_ip/pll_sys/pll_sys.debuginfo                                         ;
; TestDesigns_ES2/Clock_Generator/src/A10/mw_ip/pll_sys/pll_sys.html                                              ;
; TestDesigns_ES2/Clock_Generator/src/A10/mw_ip/pll_sys/pll_sys.ppf                                               ;
; TestDesigns_ES2/Clock_Generator/src/A10/mw_ip/pll_sys/pll_sys.qip                                               ;
; TestDesigns_ES2/Clock_Generator/src/A10/mw_ip/pll_sys/pll_sys.sip                                               ;
; TestDesigns_ES2/Clock_Generator/src/A10/mw_ip/pll_sys/pll_sys.spd                                               ;
; TestDesigns_ES2/Clock_Generator/src/A10/mw_ip/pll_sys/pll_sys.xml                                               ;
; TestDesigns_ES2/Clock_Generator/src/A10/mw_ip/pll_sys/pll_sys_bb.v                                              ;
; TestDesigns_ES2/Clock_Generator/src/A10/mw_ip/pll_sys/pll_sys_generation.rpt                                    ;
; TestDesigns_ES2/Clock_Generator/src/A10/mw_ip/pll_sys/pll_sys_generation_previous.rpt                           ;
; TestDesigns_ES2/Clock_Generator/src/A10/mw_ip/pll_sys/pll_sys_inst.v                                            ;
; TestDesigns_ES2/Clock_Generator/src/A10/mw_ip/pll_sys/pll_sys_inst.vhd                                          ;
; TestDesigns_ES2/Clock_Generator/src/A10/mw_ip/pll_sys/sim/aldec/rivierapro_setup.tcl                            ;
; TestDesigns_ES2/Clock_Generator/src/A10/mw_ip/pll_sys/sim/cadence/cds.lib                                       ;
; TestDesigns_ES2/Clock_Generator/src/A10/mw_ip/pll_sys/sim/cadence/cds_libs/pll_sys_altera_iopll_150.cds.lib     ;
; TestDesigns_ES2/Clock_Generator/src/A10/mw_ip/pll_sys/sim/cadence/hdl.var                                       ;
; TestDesigns_ES2/Clock_Generator/src/A10/mw_ip/pll_sys/sim/cadence/ncsim_setup.sh                                ;
; TestDesigns_ES2/Clock_Generator/src/A10/mw_ip/pll_sys/sim/mentor/msim_setup.tcl                                 ;
; TestDesigns_ES2/Clock_Generator/src/A10/mw_ip/pll_sys/sim/pll_sys.vhd                                           ;
; TestDesigns_ES2/Clock_Generator/src/A10/mw_ip/pll_sys/sim/synopsys/vcsmx/synopsys_sim.setup                     ;
; TestDesigns_ES2/Clock_Generator/src/A10/mw_ip/pll_sys/sim/synopsys/vcsmx/vcsmx_setup.sh                         ;
; TestDesigns_ES2/Clock_Generator/src/A10/mw_ip/pll_sys/synth/pll_sys.qicache                                     ;
; TestDesigns_ES2/Clock_Generator/src/A10/mw_ip/pll_sys/synth/pll_sys.vhd                                         ;
; TestDesigns_ES2/Clock_Generator/src/A10/top/RefDesign_SI5341.vhd                                                ;
; TestDesigns_ES2/Clock_Generator/src/auto_i2c/auto_i2c.vhd                                                       ;
; TestDesigns_ES2/Clock_Generator/src/common/clock_sensor.vhd                                                     ;
; TestDesigns_ES2/Clock_Generator/src/common/common.qip                                                           ;
; TestDesigns_ES2/Clock_Generator/src/common/delayed_rst.vhd                                                      ;
; TestDesigns_ES2/Clock_Generator/src/common/pkg_common.vhd                                                       ;
; TestDesigns_ES2/Clock_Generator/src/common/rate_count.vhd                                                       ;
; TestDesigns_ES2/Clock_Generator/src/common/rom_id.vhd                                                           ;
; TestDesigns_ES2/Clock_Generator/src/common/sync_rst.vhd                                                         ;
; TestDesigns_ES2/Clock_Generator/src/common/tick_gen.vhd                                                         ;
; TestDesigns_ES2/Clock_Generator/src/jlf/i2c.qip                                                                 ;
; TestDesigns_ES2/Clock_Generator/src/jlf/i2c/sources/i2c_clock.vhd                                               ;
; TestDesigns_ES2/Clock_Generator/src/jlf/i2c/sources/i2c_core.vhd                                                ;
; TestDesigns_ES2/Clock_Generator/src/jlf/i2c/sources/i2c_pkg.vhd                                                 ;
; TestDesigns_ES2/Clock_Generator/src/jlf/i2c/sources/i2c_sequencer.vhd                                           ;
; TestDesigns_ES2/Clock_Generator/src/jlf/pkg_jlf.qip                                                             ;
; TestDesigns_ES2/Clock_Generator/src/jlf/simu/pkg_file.vhd                                                       ;
; TestDesigns_ES2/Clock_Generator/src/jlf/simu/pkg_file_cst.vhd                                                   ;
; TestDesigns_ES2/Clock_Generator/src/jlf/simu/pkg_simu.vhd                                                       ;
; TestDesigns_ES2/Clock_Generator/src/jlf/std/pkg_cst.vhd                                                         ;
; TestDesigns_ES2/Clock_Generator/src/jlf/std/pkg_std.vhd                                                         ;
; TestDesigns_ES2/Clock_Generator/src/jlf/std/pkg_std_unsigned.vhd                                                ;
; TestDesigns_ES2/Clock_Generator/syn/RefDesign_SI5341/Archive_project.tcl                                        ;
; TestDesigns_ES2/Clock_Generator/syn/RefDesign_SI5341/CheckClocks.stp                                            ;
; TestDesigns_ES2/Clock_Generator/syn/RefDesign_SI5341/RefDesign_SI5341.qpf                                       ;
; TestDesigns_ES2/Clock_Generator/syn/RefDesign_SI5341/RefDesign_SI5341.qsf                                       ;
; TestDesigns_ES2/Clock_Generator/syn/RefDesign_SI5341/RefDesign_SI5341.sdc                                       ;
; TestDesigns_ES2/Clock_Generator/syn/RefDesign_SI5341/autobkp_cfg.tcl                                            ;
; TestDesigns_ES2/Clock_Generator/syn/RefDesign_SI5341/autobkp_post.tcl                                           ;
; TestDesigns_ES2/Clock_Generator/syn/RefDesign_SI5341/autobkp_pre.tcl                                            ;
; TestDesigns_ES2/Clock_Generator/syn/RefDesign_SI5341/config_ram0.mif                                            ;
; TestDesigns_ES2/Clock_Generator/syn/RefDesign_SI5341/db/CheckClocks_auto_stripped.stp                           ;
; TestDesigns_ES2/Clock_Generator/syn/RefDesign_SI5341/gen_version_rom.tcl                                        ;
; TestDesigns_ES2/Clock_Generator/syn/RefDesign_SI5341/multiple_pre_scripts.tcl                                   ;
; TestDesigns_ES2/Clock_Generator/syn/RefDesign_SI5341/output_files/RefDesign_SI5341.asm.rpt                      ;
; TestDesigns_ES2/Clock_Generator/syn/RefDesign_SI5341/output_files/RefDesign_SI5341.fit.rpt                      ;
; TestDesigns_ES2/Clock_Generator/syn/RefDesign_SI5341/output_files/RefDesign_SI5341.fit.smsg                     ;
; TestDesigns_ES2/Clock_Generator/syn/RefDesign_SI5341/output_files/RefDesign_SI5341.fit.summary                  ;
; TestDesigns_ES2/Clock_Generator/syn/RefDesign_SI5341/output_files/RefDesign_SI5341.flow.rpt                     ;
; TestDesigns_ES2/Clock_Generator/syn/RefDesign_SI5341/output_files/RefDesign_SI5341.jdi                          ;
; TestDesigns_ES2/Clock_Generator/syn/RefDesign_SI5341/output_files/RefDesign_SI5341.map.rpt                      ;
; TestDesigns_ES2/Clock_Generator/syn/RefDesign_SI5341/output_files/RefDesign_SI5341.map.summary                  ;
; TestDesigns_ES2/Clock_Generator/syn/RefDesign_SI5341/output_files/RefDesign_SI5341.mif_update.rpt               ;
; TestDesigns_ES2/Clock_Generator/syn/RefDesign_SI5341/output_files/RefDesign_SI5341.pin                          ;
; TestDesigns_ES2/Clock_Generator/syn/RefDesign_SI5341/output_files/RefDesign_SI5341.sof                          ;
; TestDesigns_ES2/Clock_Generator/syn/RefDesign_SI5341/output_files/RefDesign_SI5341.sta.rpt                      ;
; TestDesigns_ES2/Clock_Generator/syn/RefDesign_SI5341/output_files/RefDesign_SI5341.sta.summary                  ;
; TestDesigns_ES2/Clock_Generator/syn/RefDesign_SI5341/pm_uc_ES1_ww05p1.hex                                       ;
; TestDesigns_ES2/Clock_Generator/syn/RefDesign_SI5341/quartus.ini                                                ;
; TestDesigns_ES2/Clock_Generator/syn/RefDesign_SI5341/rxc_arria10_pinout.tcl                                     ;
; TestDesigns_ES2/Clock_Generator/syn/RefDesign_SI5341/assignment_defaults.qdf                                    ;
+-----------------------------------------------------------------------------------------------------------------+


+--------------------+
; Files Not Restored ;
+--------------------+
; File Name          ;
+--------------------+


