IP Upgrade report for RefDesign_SI5341
Tue Aug  2 17:26:04 2016
Quartus Prime Version 15.1.0 Build 185 10/21/2015 SJ Standard Edition


---------------------
; Table of Contents ;
---------------------
  1. Legal Notice
  2. IP Upgrade Summary
  3. Successfully Upgraded IP Components
  4. IP Upgrade Messages



----------------
; Legal Notice ;
----------------
Copyright (C) 1991-2015 Altera Corporation. All rights reserved.
Your use of Altera Corporation's design tools, logic functions 
and other software and tools, and its AMPP partner logic 
functions, and any output files from any of the foregoing 
(including device programming or simulation files), and any 
associated documentation or information are expressly subject 
to the terms and conditions of the Altera Program License 
Subscription Agreement, the Altera Quartus Prime License Agreement,
the Altera MegaCore Function License Agreement, or other 
applicable license agreement, including, without limitation, 
that your use is for the sole purpose of programming logic 
devices manufactured by Altera and sold by Altera or its 
authorized distributors.  Please refer to the applicable 
agreement for further details.



+--------------------------------------------------------------------------------+
; IP Upgrade Summary                                                             ;
+------------------------------+-------------------------------------------------+
; IP Components Upgrade Status ; Passed - Tue Aug  2 17:26:04 2016               ;
; Quartus Prime Version        ; 15.1.0 Build 185 10/21/2015 SJ Standard Edition ;
; Revision Name                ; RefDesign_SI5341                                ;
; Top-level Entity Name        ; RefDesign_SI5341                                ;
; Family                       ; Arria 10                                        ;
+------------------------------+-------------------------------------------------+


+------------------------------------------------------------------------------------------------------------------------------------------+
; Successfully Upgraded IP Components                                                                                                      ;
+-------------+----------------+---------+----------------------------------+----------------------------------+-----------------+---------+
; Entity Name ; Component Name ; Version ; Original Source File             ; Generation File Path             ; New Source File ; Message ;
+-------------+----------------+---------+----------------------------------+----------------------------------+-----------------+---------+
; pll_sys     ; altera_iopll   ; 15.0    ; ../../src/A10/mw_ip/pll_sys.qsys ; ../../src/A10/mw_ip/pll_sys.qsys ;                 ;         ;
+-------------+----------------+---------+----------------------------------+----------------------------------+-----------------+---------+


+---------------------+
; IP Upgrade Messages ;
+---------------------+
Info (11902): Backing up file "../../src/A10/mw_ip/pll_sys.qsys" to "../../src/A10/mw_ip/pll_sys.BAK.qsys"
Info (11902): Backing up file "../../src/A10/mw_ip/pll_sys/synth/pll_sys.vhd" to "../../src/A10/mw_ip/pll_sys.BAK.vhd"
Info (11837): Started upgrading IP component altera_iopll with file "../../src/A10/mw_ip/pll_sys.qsys"
Info: 2016.08.02.17:25:41 Info: Starting to upgrade the IP cores in the Qsys system
Info: 2016.08.02.17:25:41 Info: Finished upgrading the ip cores
Info: 2016.08.02.17:25:54 Info: Saving generation log to /home/ReflexClockGenerator/src/A10/mw_ip/pll_sys
Info: 2016.08.02.17:25:54 Info: Starting: Create simulation model
Info: 2016.08.02.17:25:54 Info: Loading mw_ip
Info: 2016.08.02.17:25:54 Info: Reading input file
Info: 2016.08.02.17:25:54 Info: Adding iopll_0 [altera_iopll 15.1]
Info: 2016.08.02.17:25:54 Info: Parameterizing module iopll_0
Info: 2016.08.02.17:25:54 Info: Building connections
Info: 2016.08.02.17:25:54 Info: Parameterizing connections
Info: 2016.08.02.17:25:54 Info: Validating
Info: 2016.08.02.17:25:54 Info: Done reading input file
Info: 2016.08.02.17:25:55 Info: pll_sys.iopll_0: Able to implement PLL with user settings
Info: 2016.08.02.17:25:55 Info: pll_sys: "Transforming system: pll_sys"
Info: 2016.08.02.17:25:55 Info: pll_sys: Running transform generation_view_transform
Info: 2016.08.02.17:25:55 Info: pll_sys: Running transform generation_view_transform took 0.000s
Info: 2016.08.02.17:25:55 Info: iopll_0: Running transform generation_view_transform
Info: 2016.08.02.17:25:55 Info: iopll_0: Running transform generation_view_transform took 0.000s
Info: 2016.08.02.17:25:55 Info: pll_sys: Running transform merlin_avalon_transform
Info: 2016.08.02.17:25:55 Info: pll_sys: Running transform merlin_avalon_transform took 0.028s
Info: 2016.08.02.17:25:55 Info: pll_sys: "Naming system components in system: pll_sys"
Info: 2016.08.02.17:25:55 Info: pll_sys: "Processing generation queue"
Info: 2016.08.02.17:25:55 Info: pll_sys: "Generating: pll_sys"
Info: 2016.08.02.17:25:55 Info: pll_sys: "Generating: pll_sys_altera_iopll_151_h6emofq"
Info: 2016.08.02.17:25:55 Info: pll_sys: Done "pll_sys" with 2 modules, 2 files
Info: 2016.08.02.17:25:55 Info: qsys-generate succeeded.
Info: 2016.08.02.17:25:55 Info: Finished: Create simulation model
Info: 2016.08.02.17:25:55 Info: Starting: Create Modelsim Project.
Info: 2016.08.02.17:25:55 Info: sim-script-gen --spd=/home/ReflexClockGenerator/src/A10/mw_ip/pll_sys/pll_sys.spd --output-directory=/home/ReflexClockGenerator/src/A10/mw_ip/pll_sys/sim
Info: 2016.08.02.17:25:55 Info: Doing: ip-make-simscript --spd=/home/ReflexClockGenerator/src/A10/mw_ip/pll_sys/pll_sys.spd --output-directory=/home/ReflexClockGenerator/src/A10/mw_ip/pll_sys/sim
Info: 2016.08.02.17:25:59 Info: Generating the following file(s) for MODELSIM simulator in /home/ReflexClockGenerator/src/A10/mw_ip/pll_sys/sim
Info: 2016.08.02.17:25:59 Info:     mentor
Info: 2016.08.02.17:25:59 Info: Skipping VCS script generation since VHDL file $QUARTUS_INSTALL_DIR/eda/sim_lib
Info: 2016.08.02.17:25:59 Info: Generating the following file(s) for VCSMX simulator in /home/ReflexClockGenerator/src/A10/mw_ip/pll_sys/sim
Info: 2016.08.02.17:25:59 Info:     synopsys/vcsmx
Info: 2016.08.02.17:25:59 Info:     synopsys/vcsmx
Info: 2016.08.02.17:25:59 Info: Generating the following file(s) for NCSIM simulator in /home/ReflexClockGenerator/src/A10/mw_ip/pll_sys/sim
Info: 2016.08.02.17:25:59 Info:     cadence
Info: 2016.08.02.17:25:59 Info:     cadence
Info: 2016.08.02.17:25:59 Info:     cadence
Info: 2016.08.02.17:25:59 Info:     1 .cds.lib files in cadence/cds_libs
Info: 2016.08.02.17:25:59 Info: Generating the following file(s) for RIVIERA simulator in /home/ReflexClockGenerator/src/A10/mw_ip/pll_sys/sim
Info: 2016.08.02.17:25:59 Info:     aldec
Info: 2016.08.02.17:25:59 Info: For information on how to simulate your IP, see the explanatory comments in the simulator-specific subdirectories under /home/ReflexClockGenerator/src/A10/mw_ip/pll_sys/sim
Info: 2016.08.02.17:25:59 Info: Finished: Create Modelsim Project.
Info: 2016.08.02.17:25:59 Info: Starting: Create block symbol file (.bsf)
Info: 2016.08.02.17:25:59 Info: Loading mw_ip
Info: 2016.08.02.17:25:59 Info: Reading input file
Info: 2016.08.02.17:25:59 Info: Adding iopll_0 [altera_iopll 15.1]
Info: 2016.08.02.17:25:59 Info: Parameterizing module iopll_0
Info: 2016.08.02.17:25:59 Info: Building connections
Info: 2016.08.02.17:25:59 Info: Parameterizing connections
Info: 2016.08.02.17:25:59 Info: Validating
Info: 2016.08.02.17:25:59 Info: Done reading input file
Info: 2016.08.02.17:25:59 Info: pll_sys.iopll_0: Able to implement PLL with user settings
Info: 2016.08.02.17:26:03 Info: qsys-generate succeeded.
Info: 2016.08.02.17:26:03 Info: Finished: Create block symbol file (.bsf)
Info: 2016.08.02.17:26:03 Info:
Info: 2016.08.02.17:26:03 Info: Starting: Create HDL design files for synthesis
Info: 2016.08.02.17:26:03 Info: Loading mw_ip
Info: 2016.08.02.17:26:03 Info: Reading input file
Info: 2016.08.02.17:26:03 Info: Adding iopll_0 [altera_iopll 15.1]
Info: 2016.08.02.17:26:03 Info: Parameterizing module iopll_0
Info: 2016.08.02.17:26:03 Info: Building connections
Info: 2016.08.02.17:26:03 Info: Parameterizing connections
Info: 2016.08.02.17:26:03 Info: Validating
Info: 2016.08.02.17:26:03 Info: Done reading input file
Info: 2016.08.02.17:26:03 Info: pll_sys.iopll_0: Able to implement PLL with user settings
Info: 2016.08.02.17:26:04 Info: pll_sys: "Transforming system: pll_sys"
Info: 2016.08.02.17:26:04 Info: pll_sys: Running transform generation_view_transform
Info: 2016.08.02.17:26:04 Info: pll_sys: Running transform generation_view_transform took 0.000s
Info: 2016.08.02.17:26:04 Info: iopll_0: Running transform generation_view_transform
Info: 2016.08.02.17:26:04 Info: iopll_0: Running transform generation_view_transform took 0.000s
Info: 2016.08.02.17:26:04 Info: pll_sys: Running transform merlin_avalon_transform
Info: 2016.08.02.17:26:04 Info: pll_sys: Running transform merlin_avalon_transform took 0.008s
Info: 2016.08.02.17:26:04 Info: pll_sys: "Naming system components in system: pll_sys"
Info: 2016.08.02.17:26:04 Info: pll_sys: "Processing generation queue"
Info: 2016.08.02.17:26:04 Info: pll_sys: "Generating: pll_sys"
Info: 2016.08.02.17:26:04 Info: pll_sys: "Generating: pll_sys_altera_iopll_151_h6emofq"
Info: 2016.08.02.17:26:04 Info: pll_sys: Done "pll_sys" with 2 modules, 3 files
Info: 2016.08.02.17:26:04 Info: qsys-generate succeeded.
Info: 2016.08.02.17:26:04 Info: Finished: Create HDL design files for synthesis
Info: ##################################################################################################
Info: # Processing assignments file starts.
Info: # XCVR RX settings applied to pin=fmc_dp_m2c[0] (with tag=rxc_pin_fmc).
Info: # XCVR RX settings applied to pin=fmc_dp_m2c[1] (with tag=rxc_pin_fmc).
Info: # XCVR RX settings applied to pin=fmc_dp_m2c[2] (with tag=rxc_pin_fmc).
Info: # XCVR RX settings applied to pin=fmc_dp_m2c[3] (with tag=rxc_pin_fmc).
Info: # XCVR RX settings applied to pin=fmc_dp_m2c[4] (with tag=rxc_pin_fmc).
Info: # XCVR RX settings applied to pin=fmc_dp_m2c[5] (with tag=rxc_pin_fmc).
Info: # XCVR RX settings applied to pin=fmc_dp_m2c[6] (with tag=rxc_pin_fmc).
Info: # XCVR RX settings applied to pin=fmc_dp_m2c[7] (with tag=rxc_pin_fmc).
Info: # XCVR RX settings applied to pin=fmc_dp_m2c[8] (with tag=rxc_pin_fmc).
Info: # XCVR RX settings applied to pin=fmc_dp_m2c[9] (with tag=rxc_pin_fmc).
Info: # XCVR TX settings applied to pin=fmc_dp_c2m[0] (with tag=rxc_pin_fmc).
Info: # XCVR TX settings applied to pin=fmc_dp_c2m[1] (with tag=rxc_pin_fmc).
Info: # XCVR TX settings applied to pin=fmc_dp_c2m[2] (with tag=rxc_pin_fmc).
Info: # XCVR TX settings applied to pin=fmc_dp_c2m[3] (with tag=rxc_pin_fmc).
Info: # XCVR TX settings applied to pin=fmc_dp_c2m[4] (with tag=rxc_pin_fmc).
Info: # XCVR TX settings applied to pin=fmc_dp_c2m[5] (with tag=rxc_pin_fmc).
Info: # XCVR TX settings applied to pin=fmc_dp_c2m[6] (with tag=rxc_pin_fmc).
Info: # XCVR TX settings applied to pin=fmc_dp_c2m[7] (with tag=rxc_pin_fmc).
Info: # XCVR TX settings applied to pin=fmc_dp_c2m[8] (with tag=rxc_pin_fmc).
Info: # XCVR TX settings applied to pin=fmc_dp_c2m[9] (with tag=rxc_pin_fmc).
Info: # XCVR RX settings applied to pin=pcie_edge_rx[0] (with tag=rxc_pin_pcie).
Info: # XCVR RX settings applied to pin=pcie_edge_rx[1] (with tag=rxc_pin_pcie).
Info: # XCVR RX settings applied to pin=pcie_edge_rx[2] (with tag=rxc_pin_pcie).
Info: # XCVR RX settings applied to pin=pcie_edge_rx[3] (with tag=rxc_pin_pcie).
Info: # XCVR RX settings applied to pin=pcie_edge_rx[4] (with tag=rxc_pin_pcie).
Info: # XCVR RX settings applied to pin=pcie_edge_rx[5] (with tag=rxc_pin_pcie).
Info: # XCVR RX settings applied to pin=pcie_edge_rx[6] (with tag=rxc_pin_pcie).
Info: # XCVR RX settings applied to pin=pcie_edge_rx[7] (with tag=rxc_pin_pcie).
Info: # XCVR TX settings applied to pin=pcie_edge_tx[0] (with tag=rxc_pin_pcie).
Info: # XCVR TX settings applied to pin=pcie_edge_tx[1] (with tag=rxc_pin_pcie).
Info: # XCVR TX settings applied to pin=pcie_edge_tx[2] (with tag=rxc_pin_pcie).
Info: # XCVR TX settings applied to pin=pcie_edge_tx[3] (with tag=rxc_pin_pcie).
Info: # XCVR TX settings applied to pin=pcie_edge_tx[4] (with tag=rxc_pin_pcie).
Info: # XCVR TX settings applied to pin=pcie_edge_tx[5] (with tag=rxc_pin_pcie).
Info: # XCVR TX settings applied to pin=pcie_edge_tx[6] (with tag=rxc_pin_pcie).
Info: # XCVR TX settings applied to pin=pcie_edge_tx[7] (with tag=rxc_pin_pcie).
Info: # XCVR RX settings applied to pin=qsfp_rx[0] (with tag=rxc_pin_qsfp).
Info: # XCVR RX settings applied to pin=qsfp_rx[1] (with tag=rxc_pin_qsfp).
Info: # XCVR RX settings applied to pin=qsfp_rx[2] (with tag=rxc_pin_qsfp).
Info: # XCVR RX settings applied to pin=qsfp_rx[3] (with tag=rxc_pin_qsfp).
Info: # XCVR TX settings applied to pin=qsfp_tx[0] (with tag=rxc_pin_qsfp).
Info: # XCVR TX settings applied to pin=qsfp_tx[1] (with tag=rxc_pin_qsfp).
Info: # XCVR TX settings applied to pin=qsfp_tx[2] (with tag=rxc_pin_qsfp).
Info: # XCVR TX settings applied to pin=qsfp_tx[3] (with tag=rxc_pin_qsfp).
Info: # XCVR RX settings applied to pin=ext_dphs_m2c[0] (with tag=rxc_pin_ext).
Info: # XCVR RX settings applied to pin=ext_dphs_m2c[1] (with tag=rxc_pin_ext).
Info: # XCVR RX settings applied to pin=ext_dphs_m2c[2] (with tag=rxc_pin_ext).
Info: # XCVR RX settings applied to pin=ext_dphs_m2c[3] (with tag=rxc_pin_ext).
Info: # XCVR RX settings applied to pin=ext_dphs_m2c[4] (with tag=rxc_pin_ext).
Info: # XCVR RX settings applied to pin=ext_dphs_m2c[5] (with tag=rxc_pin_ext).
Info: # XCVR RX settings applied to pin=ext_dphs_m2c[6] (with tag=rxc_pin_ext).
Info: # XCVR RX settings applied to pin=ext_dphs_m2c[7] (with tag=rxc_pin_ext).
Info: # XCVR RX settings applied to pin=ext_dphs_m2c[8] (with tag=rxc_pin_ext).
Info: # XCVR RX settings applied to pin=ext_dphs_m2c[9] (with tag=rxc_pin_ext).
Info: # XCVR RX settings applied to pin=ext_dphs_m2c[10] (with tag=rxc_pin_ext).
Info: # XCVR RX settings applied to pin=ext_dphs_m2c[11] (with tag=rxc_pin_ext).
Info: # XCVR RX settings applied to pin=ext_dphs_m2c[12] (with tag=rxc_pin_ext).
Info: # XCVR RX settings applied to pin=ext_dphs_m2c[13] (with tag=rxc_pin_ext).
Info: # XCVR RX settings applied to pin=ext_dphs_m2c[14] (with tag=rxc_pin_ext).
Info: # XCVR RX settings applied to pin=ext_dphs_m2c[15] (with tag=rxc_pin_ext).
Info: # XCVR RX settings applied to pin=ext_dphs_m2c[16] (with tag=rxc_pin_ext).
Info: # XCVR RX settings applied to pin=ext_dphs_m2c[17] (with tag=rxc_pin_ext).
Info: # XCVR RX settings applied to pin=ext_dphs_m2c[18] (with tag=rxc_pin_ext).
Info: # XCVR RX settings applied to pin=ext_dphs_m2c[19] (with tag=rxc_pin_ext).
Info: # XCVR RX settings applied to pin=ext_dphs_m2c[20] (with tag=rxc_pin_ext).
Info: # XCVR RX settings applied to pin=ext_dphs_m2c[21] (with tag=rxc_pin_ext).
Info: # XCVR TX settings applied to pin=ext_dphs_c2m[0] (with tag=rxc_pin_ext).
Info: # XCVR TX settings applied to pin=ext_dphs_c2m[1] (with tag=rxc_pin_ext).
Info: # XCVR TX settings applied to pin=ext_dphs_c2m[2] (with tag=rxc_pin_ext).
Info: # XCVR TX settings applied to pin=ext_dphs_c2m[3] (with tag=rxc_pin_ext).
Info: # XCVR TX settings applied to pin=ext_dphs_c2m[4] (with tag=rxc_pin_ext).
Info: # XCVR TX settings applied to pin=ext_dphs_c2m[5] (with tag=rxc_pin_ext).
Info: # XCVR TX settings applied to pin=ext_dphs_c2m[6] (with tag=rxc_pin_ext).
Info: # XCVR TX settings applied to pin=ext_dphs_c2m[7] (with tag=rxc_pin_ext).
Info: # XCVR TX settings applied to pin=ext_dphs_c2m[8] (with tag=rxc_pin_ext).
Info: # XCVR TX settings applied to pin=ext_dphs_c2m[9] (with tag=rxc_pin_ext).
Info: # XCVR TX settings applied to pin=ext_dphs_c2m[10] (with tag=rxc_pin_ext).
Info: # XCVR TX settings applied to pin=ext_dphs_c2m[11] (with tag=rxc_pin_ext).
Info: # XCVR TX settings applied to pin=ext_dphs_c2m[12] (with tag=rxc_pin_ext).
Info: # XCVR TX settings applied to pin=ext_dphs_c2m[13] (with tag=rxc_pin_ext).
Info: # XCVR TX settings applied to pin=ext_dphs_c2m[14] (with tag=rxc_pin_ext).
Info: # XCVR TX settings applied to pin=ext_dphs_c2m[15] (with tag=rxc_pin_ext).
Info: # XCVR TX settings applied to pin=ext_dphs_c2m[16] (with tag=rxc_pin_ext).
Info: # XCVR TX settings applied to pin=ext_dphs_c2m[17] (with tag=rxc_pin_ext).
Info: # XCVR TX settings applied to pin=ext_dphs_c2m[18] (with tag=rxc_pin_ext).
Info: # XCVR TX settings applied to pin=ext_dphs_c2m[19] (with tag=rxc_pin_ext).
Info: # XCVR TX settings applied to pin=ext_dphs_c2m[20] (with tag=rxc_pin_ext).
Info: # XCVR TX settings applied to pin=ext_dphs_c2m[21] (with tag=rxc_pin_ext).
Info: # XCVR TX settings applied to pin=dp_tx[0] (with tag=rxc_pin_dp).
Info: # XCVR TX settings applied to pin=dp_tx[1] (with tag=rxc_pin_dp).
Info: # XCVR TX settings applied to pin=dp_tx[2] (with tag=rxc_pin_dp).
Info: # XCVR TX settings applied to pin=dp_tx[3] (with tag=rxc_pin_dp).
Info: # CONNECT_MISC!=false => assignments with tag -rxc_pin_misc- were preserved.
Info: # CONNECT_SODIMM_DDR4!=false => assignments with tag -rxc_pin_sodimm_ddr4- were preserved.
Info: # CONNECT_DP_XCVR!=false => assignments with tag -rxc_pin_dp- were preserved.
Info: # CONNECT_ETH!=false => assignments with tag -rxc_pin_gbe- were preserved.
Info: # CONNECT_EXT!=false => assignments with tag -rxc_pin_ext- were preserved.
Info: # CONNECT_FMC!=false => assignments with tag -rxc_pin_fmc- were preserved.
Info: # CONNECT_PCIE!=false => assignments with tag -rxc_pin_pcie- were preserved.
Info: # CONNECT_QSFP_XCVR!=false => assignments with tag -rxc_pin_qsfp- were preserved.
Info: # CONNECT_POWER_MON!=false => assignments with tag -rxc_pin_power- were preserved.
Info: # CONNECT_SI5341!=false => assignments with tag -rxc_pin_si5341- were preserved.
Info: # Processing assignments file ends.
Info: ##################################################################################################
Info (11131): Completed upgrading IP component altera_iopll with file "../../src/A10/mw_ip/pll_sys.qsys"
Info (23030): Evaluation of Tcl script /root/altera/15.1/quartus/common/tcl/internal/ip_regen/ip_regen.tcl was successful
Info: Quartus Prime Shell was successful. 0 errors, 0 warnings
    Info: Peak virtual memory: 1404 megabytes
    Info: Processing ended: Tue Aug  2 17:26:04 2016
    Info: Elapsed time: 00:00:38
    Info: Total CPU time (on all processors): 00:01:30


