# Si538x/4x Registers Export
# 
# Part: Si5341
# Project File: <not saved>
# Design ID: TESTELEC
# Includes Pre/Post Download Control Register Writes: Yes
# Die Revision: A2
# Creator: ClockBuilder Pro v2.6 [2016-03-29]
# Created On: 2016-05-03 21:15:25 GMT+02:00
Address,Data
0x0B24,0xD8
0x0B25,0x00
0x000B,0x74
0x0017,0x10
0x0018,0xF8
0x0021,0x0E
0x0022,0x00
0x002B,0x02
0x002C,0x27
0x002D,0x15
0x002E,0x8B
0x002F,0x00
0x0030,0x8B
0x0031,0x00
0x0032,0x8B
0x0033,0x00
0x0034,0x00
0x0035,0x00
0x0036,0x57
0x0037,0x00
0x0038,0x57
0x0039,0x00
0x003A,0x57
0x003B,0x00
0x003C,0x00
0x003D,0x00
0x0041,0x06
0x0042,0x06
0x0043,0x06
0x0044,0x00
0x009E,0x00
0x0102,0x01
0x0108,0x06
0x0109,0x09
0x010A,0x3B
0x010B,0x00
0x010D,0x06
0x010E,0x09
0x010F,0x3B
0x0110,0x00
0x0112,0x06
0x0113,0x09
0x0114,0x3B
0x0115,0x00
0x0117,0x06
0x0118,0x09
0x0119,0x3B
0x011A,0x00
0x011C,0x06
0x011D,0x09
0x011E,0x3B
0x011F,0x00
0x0121,0x06
0x0122,0x09
0x0123,0x3B
0x0124,0x00
0x0126,0x02
0x0127,0x09
0x0128,0x3B
0x0129,0x01
0x012B,0x06
0x012C,0x09
0x012D,0x3B
0x012E,0x00
0x0130,0x06
0x0131,0x09
0x0132,0x3B
0x0133,0x00
0x013A,0x02
0x013B,0x09
0x013C,0x3B
0x013D,0x01
0x013F,0x00
0x0140,0x00
0x0141,0x40
0x0202,0x00
0x0203,0x00
0x0204,0x00
0x0205,0x00
0x0206,0x00
0x0208,0x04
0x0209,0x00
0x020A,0x00
0x020B,0x00
0x020C,0x00
0x020D,0x00
0x020E,0x01
0x020F,0x00
0x0210,0x00
0x0211,0x00
0x0212,0x04
0x0213,0x00
0x0214,0x00
0x0215,0x00
0x0216,0x00
0x0217,0x00
0x0218,0x01
0x0219,0x00
0x021A,0x00
0x021B,0x00
0x021C,0x04
0x021D,0x00
0x021E,0x00
0x021F,0x00
0x0220,0x00
0x0221,0x00
0x0222,0x01
0x0223,0x00
0x0224,0x00
0x0225,0x00
0x0226,0x00
0x0227,0x00
0x0228,0x00
0x0229,0x00
0x022A,0x00
0x022B,0x00
0x022C,0x00
0x022D,0x00
0x022E,0x00
0x022F,0x00
0x0235,0x00
0x0236,0x00
0x0237,0xC0
0x0238,0x5E
0x0239,0x0F
0x023A,0x02
0x023B,0x00
0x023C,0x00
0x023D,0x00
0x023E,0xFA
0x024A,0x00
0x024B,0x00
0x024C,0x00
0x024D,0x00
0x024E,0x00
0x024F,0x00
0x0250,0x00
0x0251,0x00
0x0252,0x00
0x0253,0x00
0x0254,0x00
0x0255,0x00
0x0256,0x00
0x0257,0x00
0x0258,0x00
0x0259,0x00
0x025A,0x00
0x025B,0x00
0x025C,0x03
0x025D,0x00
0x025E,0x00
0x025F,0x00
0x0260,0x00
0x0261,0x00
0x0262,0x00
0x0263,0x00
0x0264,0x00
0x0268,0x03
0x0269,0x00
0x026A,0x00
0x026B,0x54
0x026C,0x45
0x026D,0x53
0x026E,0x54
0x026F,0x45
0x0270,0x4C
0x0271,0x45
0x0272,0x43
0x0302,0x00
0x0303,0x00
0x0304,0x00
0x0305,0x80
0x0306,0x0D
0x0307,0x00
0x0308,0x00
0x0309,0x00
0x030A,0x00
0x030B,0x80
0x030D,0x00
0x030E,0x00
0x030F,0xF6
0x0310,0x7A
0x0311,0x10
0x0312,0x00
0x0313,0x00
0x0314,0x00
0x0315,0x00
0x0316,0xFA
0x0318,0x00
0x0319,0x00
0x031A,0x00
0x031B,0x00
0x031C,0x00
0x031D,0x00
0x031E,0x00
0x031F,0x00
0x0320,0x00
0x0321,0x00
0x0323,0x00
0x0324,0x00
0x0325,0x00
0x0326,0x00
0x0327,0x00
0x0328,0x00
0x0329,0x00
0x032A,0x00
0x032B,0x00
0x032C,0x00
0x032E,0x00
0x032F,0x00
0x0330,0x00
0x0331,0x00
0x0332,0x00
0x0333,0x00
0x0334,0x00
0x0335,0x00
0x0336,0x00
0x0337,0x00
0x0339,0x1F
0x033B,0x00
0x033C,0x00
0x033D,0x00
0x033E,0x00
0x033F,0x00
0x0340,0x00
0x0341,0x00
0x0342,0x00
0x0343,0x00
0x0344,0x00
0x0345,0x00
0x0346,0x00
0x0347,0x00
0x0348,0x00
0x0349,0x00
0x034A,0x00
0x034B,0x00
0x034C,0x00
0x034D,0x00
0x034E,0x00
0x034F,0x00
0x0350,0x00
0x0351,0x00
0x0352,0x00
0x0353,0x00
0x0354,0x00
0x0355,0x00
0x0356,0x00
0x0357,0x00
0x0358,0x00
0x0359,0x00
0x035A,0x00
0x035B,0x00
0x035C,0x00
0x035D,0x00
0x035E,0x00
0x035F,0x00
0x0360,0x00
0x0361,0x00
0x0362,0x00
0x090E,0x02
0x091C,0x04
0x0943,0x00
0x0949,0x07
0x094A,0x70
0x0A02,0x00
0x0A03,0x03
0x0A04,0x01
0x0A05,0x03
0x0B44,0x0F
0x0B4A,0x1C
0x001C,0x01
0x0B24,0xDB
0x0B25,0x02
